\relax 
\providecommand\hyper@newdestlabel[2]{}
\providecommand\HyperFirstAtBeginDocument{\AtBeginDocument}
\HyperFirstAtBeginDocument{\ifx\hyper@anchor\@undefined
\global\let\oldcontentsline\contentsline
\gdef\contentsline#1#2#3#4{\oldcontentsline{#1}{#2}{#3}}
\global\let\oldnewlabel\newlabel
\gdef\newlabel#1#2{\newlabelxx{#1}#2}
\gdef\newlabelxx#1#2#3#4#5#6{\oldnewlabel{#1}{{#2}{#3}}}
\AtEndDocument{\ifx\hyper@anchor\@undefined
\let\contentsline\oldcontentsline
\let\newlabel\oldnewlabel
\fi}
\fi}
\global\let\hyper@last\relax 
\gdef\HyperFirstAtBeginDocument#1{#1}
\providecommand\HyField@AuxAddToFields[1]{}
\providecommand\HyField@AuxAddToCoFields[2]{}
\citation{spin}
\citation{mafia}
\@writefile{toc}{\contentsline {section}{\numberline {1}Introduction}{\thepage }{section.1}}
\newlabel{sec:introduction}{{1}{\thepage }{Introduction}{section.1}{}}
\@writefile{lof}{\contentsline {figure}{\numberline {1}{\ignorespaces Illustration of the problem of mining maximal temporally anomalous sub-trajectories.}}{\thepage }{figure.1}}
\newlabel{fig:illustration1}{{1}{\thepage }{Illustration of the problem of mining maximal temporally anomalous sub-trajectories}{figure.1}{}}
\citation{busbunching}
\@writefile{lof}{\contentsline {figure}{\numberline {2}{\ignorespaces Pipeline of \textsc  {Mantra}. }}{\thepage }{figure.2}}
\newlabel{fig:illustration}{{2}{\thepage }{Pipeline of \textsc {Mantra}}{figure.2}{}}
\citation{map1,map2,map3}
\citation{123}
\citation{123}
\citation{sparsetiming}
\citation{myicdm}
\citation{cab1}
\citation{hustim2013vehicle}
\@writefile{toc}{\contentsline {section}{\numberline {2}Problem Formulation}{\thepage }{section.2}}
\newlabel{sec:formulation}{{2}{\thepage }{Problem Formulation}{section.2}{}}
\newlabel{def:roadnetwork}{{1}{\thepage }{Problem Formulation}{defn.1}{}}
\newlabel{eq:variance}{{1}{\thepage }{Problem Formulation}{equation.2.1}{}}
\newlabel{eq:anomaly}{{4}{\thepage }{Problem Formulation}{equation.2.4}{}}
\@writefile{toc}{\contentsline {section}{\numberline {3}The na\"{i}ve approach}{\thepage }{section.3}}
\newlabel{sec:naive}{{3}{\thepage }{The na\"{i}ve approach}{section.3}{}}
\@writefile{toc}{\contentsline {section}{\numberline {4}MANTRA}{\thepage }{section.4}}
\newlabel{sec:mantra}{{4}{\thepage }{MANTRA}{section.4}{}}
\@writefile{toc}{\contentsline {subsection}{\numberline {4.1}Managing data sparsity}{\thepage }{subsection.4.1}}
\newlabel{sec:datasparsity}{{4.1}{\thepage }{Managing data sparsity}{subsection.4.1}{}}
\newlabel{fig:network}{{3(a)}{\thepage }{Subfigure 3(a)}{subfigure.3.1}{}}
\newlabel{sub@fig:network}{{(a)}{\thepage }{Subfigure 3(a)\relax }{subfigure.3.1}{}}
\newlabel{fig:sparsity}{{3(b)}{\thepage }{Subfigure 3(b)}{subfigure.3.2}{}}
\newlabel{sub@fig:sparsity}{{(b)}{\thepage }{Subfigure 3(b)\relax }{subfigure.3.2}{}}
\newlabel{fig:covariance}{{3(c)}{\thepage }{Subfigure 3(c)}{subfigure.3.3}{}}
\newlabel{sub@fig:covariance}{{(c)}{\thepage }{Subfigure 3(c)\relax }{subfigure.3.3}{}}
\@writefile{lof}{\contentsline {figure}{\numberline {3}{\ignorespaces (a) A road network and a database of network-constrained trajectories. For simplicity, we ignore the timestamps. (b) Illustration of data sparsity with sub-trajectory size. (c) Correlation among edges against the distance between them.}}{\thepage }{figure.3}}
\@writefile{lof}{\contentsline {subfigure}{\numberline{(a)}{\ignorespaces {}}}{\thepage }{figure.3}}
\@writefile{lof}{\contentsline {subfigure}{\numberline{(b)}{\ignorespaces {}}}{\thepage }{figure.3}}
\@writefile{lof}{\contentsline {subfigure}{\numberline{(c)}{\ignorespaces {}}}{\thepage }{figure.3}}
\newlabel{eq:approxmean}{{5}{\thepage }{Managing data sparsity}{equation.4.5}{}}
\newlabel{eq:approxstddev}{{6}{\thepage }{Managing data sparsity}{equation.4.6}{}}
\@writefile{toc}{\contentsline {subsection}{\numberline {4.2}Fine-tuning the z-score based anomaly model}{\thepage }{subsection.4.2}}
\newlabel{thm:excuse}{{1}{\thepage }{Fine-tuning the z-score based anomaly model}{claim.1}{}}
\newlabel{eq:dist}{{7}{\thepage }{Fine-tuning the z-score based anomaly model}{equation.4.7}{}}
\newlabel{eq:ouranomaly}{{9}{\thepage }{Fine-tuning the z-score based anomaly model}{equation.4.9}{}}
\newlabel{thm:ouranomaly}{{2}{\thepage }{Fine-tuning the z-score based anomaly model}{claim.2}{}}
\citation{dtw}
\citation{lcss}
\citation{edr}
\citation{msa}
\@writefile{lof}{\contentsline {figure}{\numberline {4}{\ignorespaces The MASs in the shown example. Red edges denote the anomalous edges ($|{I}(e)d_e^2|>1$).}}{\thepage }{figure.4}}
\newlabel{fig:sw}{{4}{\thepage }{The MASs in the shown example. Red edges denote the anomalous edges ($|{I}(e)d_e^2|>1$)}{figure.4}{}}
\@writefile{toc}{\contentsline {subsubsection}{\numberline {4.2.1}``Spill-over'' effect from anomalous edges}{\thepage }{subsubsection.4.2.1}}
\newlabel{sec:spillover}{{4.2.1}{\thepage }{``Spill-over'' effect from anomalous edges}{subsubsection.4.2.1}{}}
\@writefile{toc}{\contentsline {subsection}{\numberline {4.3}Mining maximal anomalous sub-trajectories}{\thepage }{subsection.4.3}}
\newlabel{sec:mining}{{4.3}{\thepage }{Mining maximal anomalous sub-trajectories}{subsection.4.3}{}}
\@writefile{loa}{\contentsline {algorithm}{\numberline {1}{\ignorespaces BSW($T$)}}{\thepage }{algorithm.1}}
\newlabel{alg:sw}{{1}{\thepage }{Bi-directional sliding window}{algorithm.1}{}}
\@writefile{toc}{\contentsline {subsubsection}{\numberline {4.3.1}Bi-directional sliding window}{\thepage }{subsubsection.4.3.1}}
\newlabel{sec:sw}{{4.3.1}{\thepage }{Bi-directional sliding window}{subsubsection.4.3.1}{}}
\newlabel{thm:sw}{{3}{\thepage }{Bi-directional sliding window}{claim.3}{}}
\@writefile{lof}{\contentsline {figure}{\numberline {5}{\ignorespaces A trajectory where the bi-directional sliding window algorithm is not efficient. Red edges denote anomalous ones.}}{\thepage }{figure.5}}
\newlabel{fig:swweakness}{{5}{\thepage }{A trajectory where the bi-directional sliding window algorithm is not efficient. Red edges denote anomalous ones}{figure.5}{}}
\@writefile{toc}{\contentsline {subsubsection}{\numberline {4.3.2}Mining islands}{\thepage }{subsubsection.4.3.2}}
\newlabel{sec:island}{{4.3.2}{\thepage }{Mining islands}{subsubsection.4.3.2}{}}
\@writefile{lof}{\contentsline {figure}{\numberline {6}{\ignorespaces The islands contained in the trajectory in Fig.\nobreakspace  {}\ref  {fig:swweakness}}}{\thepage }{figure.6}}
\newlabel{fig:islands}{{6}{\thepage }{The islands contained in the trajectory in Fig.~\ref {fig:swweakness}}{figure.6}{}}
\newlabel{thm:overlapping_synergy}{{4}{\thepage }{Mining islands}{claim.4}{}}
\newlabel{thm:nonanomalous_synergy}{{5}{\thepage }{Mining islands}{claim.5}{}}
\newlabel{thm:twoedge}{{6}{\thepage }{Mining islands}{claim.6}{}}
\newlabel{thm:one_edge_synergy}{{7}{\thepage }{Mining islands}{claim.7}{}}
\@writefile{loa}{\contentsline {algorithm}{\numberline {2}{\ignorespaces MANTRA($T$)}}{\thepage }{algorithm.2}}
\newlabel{alg:mfa}{{2}{\thepage }{Mining islands}{algorithm.2}{}}
\newlabel{eq:oneedge}{{14}{\thepage }{Mining islands}{equation.4.14}{}}
\@writefile{loa}{\contentsline {algorithm}{\numberline {3}{\ignorespaces addSeed($S,ST$)}}{\thepage }{algorithm.3}}
\newlabel{alg:addseed}{{3}{\thepage }{Mining islands}{algorithm.3}{}}
\citation{cab1,cab2}
\citation{geolife}
\citation{map1,map2,map3}
\@writefile{lof}{\contentsline {figure}{\numberline {7}{\ignorespaces Illustration of seeds, left boundary, right boundary, and synergy. The red glowing edges denote anomalous edges. Yellow glowing dashed edges denote those non-anomalous edges that are in the left or right boundary of an anomalous edge. Refer to Table.\nobreakspace  {}\ref  {tab:synergy} for the corresponding stored items in the seed set.}}{\thepage }{figure.7}}
\newlabel{fig:synergy}{{7}{\thepage }{Illustration of seeds, left boundary, right boundary, and synergy. The red glowing edges denote anomalous edges. Yellow glowing dashed edges denote those non-anomalous edges that are in the left or right boundary of an anomalous edge. Refer to Table.~\ref {tab:synergy} for the corresponding stored items in the seed set}{figure.7}{}}
\newlabel{thm:no_missing_mas}{{8}{\thepage }{Mining islands}{claim.8}{}}
\@writefile{toc}{\contentsline {section}{\numberline {5}Experiments}{\thepage }{section.5}}
\newlabel{sec:experiments}{{5}{\thepage }{Experiments}{section.5}{}}
\@writefile{toc}{\contentsline {subsection}{\numberline {5.1}Datasets}{\thepage }{subsection.5.1}}
\newlabel{sec:datasets}{{5.1}{\thepage }{Datasets}{subsection.5.1}{}}
\@writefile{lot}{\contentsline {table}{\numberline {1}{\ignorespaces Seed set and their boundaries for the example in Fig.\ref  {fig:synergy}}}{\thepage }{table.1}}
\newlabel{tab:synergy}{{1}{\thepage }{Seed set and their boundaries for the example in Fig.\ref {fig:synergy}}{table.1}{}}
\@writefile{toc}{\contentsline {subsection}{\numberline {5.2}Experimental Setup}{\thepage }{subsection.5.2}}
\newlabel{sec:setup}{{5.2}{\thepage }{Experimental Setup}{subsection.5.2}{}}
\@writefile{toc}{\contentsline {subsection}{\numberline {5.3}Scalability}{\thepage }{subsection.5.3}}
\newlabel{sec:scalability}{{5.3}{\thepage }{Scalability}{subsection.5.3}{}}
\newlabel{fig:trajdist}{{8(a)}{\thepage }{Subfigure 8(a)}{subfigure.8.1}{}}
\newlabel{sub@fig:trajdist}{{(a)}{\thepage }{Subfigure 8(a)\relax }{subfigure.8.1}{}}
\newlabel{fig:trajsizevstime}{{8(b)}{\thepage }{Subfigure 8(b)}{subfigure.8.2}{}}
\newlabel{sub@fig:trajsizevstime}{{(b)}{\thepage }{Subfigure 8(b)\relax }{subfigure.8.2}{}}
\newlabel{fig:trajsizevsedge}{{8(c)}{\thepage }{Subfigure 8(c)}{subfigure.8.3}{}}
\newlabel{sub@fig:trajsizevsedge}{{(c)}{\thepage }{Subfigure 8(c)\relax }{subfigure.8.3}{}}
\newlabel{fig:anomalysizevstime}{{8(d)}{\thepage }{Subfigure 8(d)}{subfigure.8.4}{}}
\newlabel{sub@fig:anomalysizevstime}{{(d)}{\thepage }{Subfigure 8(d)\relax }{subfigure.8.4}{}}
\newlabel{fig:anomalysizevsedges}{{8(e)}{\thepage }{Subfigure 8(e)}{subfigure.8.5}{}}
\newlabel{sub@fig:anomalysizevsedges}{{(e)}{\thepage }{Subfigure 8(e)\relax }{subfigure.8.5}{}}
\newlabel{fig:ap}{{8(f)}{\thepage }{Subfigure 8(f)}{subfigure.8.6}{}}
\newlabel{sub@fig:ap}{{(f)}{\thepage }{Subfigure 8(f)\relax }{subfigure.8.6}{}}
\newlabel{fig:ms}{{8(g)}{\thepage }{Subfigure 8(g)}{subfigure.8.7}{}}
\newlabel{sub@fig:ms}{{(g)}{\thepage }{Subfigure 8(g)\relax }{subfigure.8.7}{}}
\newlabel{fig:anomalyvstime}{{8(h)}{\thepage }{Subfigure 8(h)}{subfigure.8.8}{}}
\newlabel{sub@fig:anomalyvstime}{{(h)}{\thepage }{Subfigure 8(h)\relax }{subfigure.8.8}{}}
\newlabel{fig:meanaccuracy}{{8(i)}{\thepage }{Subfigure 8(i)}{subfigure.8.9}{}}
\newlabel{sub@fig:meanaccuracy}{{(i)}{\thepage }{Subfigure 8(i)\relax }{subfigure.8.9}{}}
\newlabel{fig:stddevaccuracy}{{8(j)}{\thepage }{Subfigure 8(j)}{subfigure.8.10}{}}
\newlabel{sub@fig:stddevaccuracy}{{(j)}{\thepage }{Subfigure 8(j)\relax }{subfigure.8.10}{}}
\@writefile{lof}{\contentsline {figure}{\numberline {8}{\ignorespaces (a) Distribution of trajectory sizes in the T-Drive and GeoLife datasets. The growth rate of (b) running time and (c) number of edges processed against the trajectory size. The growth rate of (d) running time and (e) number of edges processed against the number of anomalous edges. (f-g) Impact of the distribution of seeds on the performance of \textsc  {Mantra} and Sliding Window. (h) The growth rate of running time against the anomaly threshold. (i-j) The accuracy of mean $\mu $ and standard deviation $\sigma $ in our approximations.}}{\thepage }{figure.8}}
\@writefile{lof}{\contentsline {subfigure}{\numberline{(a)}{\ignorespaces {}}}{\thepage }{figure.8}}
\@writefile{lof}{\contentsline {subfigure}{\numberline{(b)}{\ignorespaces {}}}{\thepage }{figure.8}}
\@writefile{lof}{\contentsline {subfigure}{\numberline{(c)}{\ignorespaces {}}}{\thepage }{figure.8}}
\@writefile{lof}{\contentsline {subfigure}{\numberline{(d)}{\ignorespaces {}}}{\thepage }{figure.8}}
\@writefile{lof}{\contentsline {subfigure}{\numberline{(e)}{\ignorespaces {}}}{\thepage }{figure.8}}
\@writefile{lof}{\contentsline {subfigure}{\numberline{(f)}{\ignorespaces {}}}{\thepage }{figure.8}}
\@writefile{lof}{\contentsline {subfigure}{\numberline{(g)}{\ignorespaces {}}}{\thepage }{figure.8}}
\@writefile{lof}{\contentsline {subfigure}{\numberline{(h)}{\ignorespaces {}}}{\thepage }{figure.8}}
\@writefile{lof}{\contentsline {subfigure}{\numberline{(i)}{\ignorespaces {Accuracy of $\mu $}}}{\thepage }{figure.8}}
\@writefile{lof}{\contentsline {subfigure}{\numberline{(j)}{\ignorespaces {Accuracy of $\sigma $}}}{\thepage }{figure.8}}
\newlabel{fig:anomalyratio}{{9(a)}{\thepage }{Subfigure 9(a)}{subfigure.9.1}{}}
\newlabel{sub@fig:anomalyratio}{{(a)}{\thepage }{Subfigure 9(a)\relax }{subfigure.9.1}{}}
\newlabel{fig:masratio}{{9(b)}{\thepage }{Subfigure 9(b)}{subfigure.9.2}{}}
\newlabel{sub@fig:masratio}{{(b)}{\thepage }{Subfigure 9(b)\relax }{subfigure.9.2}{}}
\newlabel{fig:meanspeed}{{9(c)}{\thepage }{Subfigure 9(c)}{subfigure.9.3}{}}
\newlabel{sub@fig:meanspeed}{{(c)}{\thepage }{Subfigure 9(c)\relax }{subfigure.9.3}{}}
\newlabel{fig:walkcar}{{9(d)}{\thepage }{Subfigure 9(d)}{subfigure.9.4}{}}
\newlabel{sub@fig:walkcar}{{(d)}{\thepage }{Subfigure 9(d)\relax }{subfigure.9.4}{}}
\newlabel{fig:buscar}{{9(e)}{\thepage }{Subfigure 9(e)}{subfigure.9.5}{}}
\newlabel{sub@fig:buscar}{{(e)}{\thepage }{Subfigure 9(e)\relax }{subfigure.9.5}{}}
\@writefile{lof}{\contentsline {figure}{\numberline {9}{\ignorespaces  (a) The distribution of ``spill-over'' effect from a single anomalous edge. (b) The distribution of the proportion of anomalous edges in MASs. (c) Periodicity in T-drive dataset. (d-e) Distribution of anomaly scores in two-class classification.}}{\thepage }{figure.9}}
\@writefile{lof}{\contentsline {subfigure}{\numberline{(a)}{\ignorespaces {}}}{\thepage }{figure.9}}
\@writefile{lof}{\contentsline {subfigure}{\numberline{(b)}{\ignorespaces {}}}{\thepage }{figure.9}}
\@writefile{lof}{\contentsline {subfigure}{\numberline{(c)}{\ignorespaces {}}}{\thepage }{figure.9}}
\@writefile{lof}{\contentsline {subfigure}{\numberline{(d)}{\ignorespaces {Walk and Car}}}{\thepage }{figure.9}}
\@writefile{lof}{\contentsline {subfigure}{\numberline{(e)}{\ignorespaces {Bus and Car}}}{\thepage }{figure.9}}
\@writefile{toc}{\contentsline {subsection}{\numberline {5.4}Analysis of the anomaly model}{\thepage }{subsection.5.4}}
\newlabel{sec:analysis}{{5.4}{\thepage }{Analysis of the anomaly model}{subsection.5.4}{}}
\@writefile{toc}{\contentsline {subsection}{\numberline {5.5}Efficacy and applications}{\thepage }{subsection.5.5}}
\newlabel{sec:quality}{{5.5}{\thepage }{Efficacy and applications}{subsection.5.5}{}}
\citation{fscore}
\@writefile{lot}{\contentsline {table}{\numberline {2}{\ignorespaces F-scores in two-class classification.}}{\thepage }{table.2}}
\newlabel{tab:f-score}{{2}{\thepage }{F-scores in two-class classification}{table.2}{}}
\newlabel{eq:anomalyscore}{{16}{\thepage }{Efficacy and applications}{equation.5.16}{}}
\@writefile{lot}{\contentsline {table}{\numberline {3}{\ignorespaces F-scores in 3-class classification.}}{\thepage }{table.3}}
\newlabel{tab:fscores3}{{3}{\thepage }{F-scores in 3-class classification}{table.3}{}}
\citation{PANO}
\citation{Hu06asystem}
\citation{spatial1}
\citation{breunig2000lof}
\citation{knorr2000distance}
\citation{ge2010top}
\citation{spatial2}
\citation{emergency}
\citation{chen2012real}
\citation{li2007roam}
\citation{temporal1}
\citation{piciarelli2008trajectory}
\citation{busbunching}
\bibstyle{abbrv}
\bibdata{mantra}
\bibcite{myicdm}{1}
\bibcite{breunig2000lof}{2}
\bibcite{emergency}{3}
\bibcite{mafia}{4}
\bibcite{chen2012real}{5}
\bibcite{edr}{6}
\bibcite{msa}{7}
\bibcite{ge2010top}{8}
\bibcite{map2}{9}
\bibcite{123}{10}
\bibcite{Hu06asystem}{11}
\bibcite{spin}{12}
\bibcite{hustim2013vehicle}{13}
\bibcite{dtw}{14}
\bibcite{knorr2000distance}{15}
\bibcite{spatial1}{16}
\bibcite{li2007roam}{17}
\bibcite{temporal1}{18}
\bibcite{map1}{19}
\bibcite{busbunching}{20}
\bibcite{piciarelli2008trajectory}{21}
\bibcite{PANO}{22}
\bibcite{lcss}{23}
\bibcite{sparsetiming}{24}
\bibcite{cab2}{25}
\bibcite{cab1}{26}
\bibcite{map3}{27}
\bibcite{spatial2}{28}
\bibcite{geolife}{29}
\bibcite{fscore}{30}
\@writefile{lot}{\contentsline {table}{\numberline {4}{\ignorespaces F-scores in trajectory segmentation by \textsc  {Mantra} and Nearest neighbor (NN) classification based on edge speed.}}{\thepage }{table.4}}
\newlabel{tab:segmentation}{{4}{\thepage }{F-scores in trajectory segmentation by \textsc {Mantra} and Nearest neighbor (NN) classification based on edge speed}{table.4}{}}
\@writefile{toc}{\contentsline {section}{\numberline {6}Related Work}{\thepage }{section.6}}
\newlabel{sec:relatedwork}{{6}{\thepage }{Related Work}{section.6}{}}
\@writefile{toc}{\contentsline {section}{\numberline {7}Conclusion}{\thepage }{section.7}}
\newlabel{sec:conclusion}{{7}{\thepage }{Conclusion}{section.7}{}}
\@writefile{toc}{\contentsline {section}{\numberline {8}References}{\thepage }{section.8}}
