\relax 
\providecommand\hyper@newdestlabel[2]{}
\providecommand\HyperFirstAtBeginDocument{\AtBeginDocument}
\HyperFirstAtBeginDocument{\ifx\hyper@anchor\@undefined
\global\let\oldcontentsline\contentsline
\gdef\contentsline#1#2#3#4{\oldcontentsline{#1}{#2}{#3}}
\global\let\oldnewlabel\newlabel
\gdef\newlabel#1#2{\newlabelxx{#1}#2}
\gdef\newlabelxx#1#2#3#4#5#6{\oldnewlabel{#1}{{#2}{#3}}}
\AtEndDocument{\ifx\hyper@anchor\@undefined
\let\contentsline\oldcontentsline
\let\newlabel\oldnewlabel
\fi}
\fi}
\global\let\hyper@last\relax 
\gdef\HyperFirstAtBeginDocument#1{#1}
\providecommand\HyField@AuxAddToFields[1]{}
\providecommand\HyField@AuxAddToCoFields[2]{}
\citation{Bogdanov:2011:MHS:2117684.2118218,export:174345}
\@writefile{toc}{\contentsline {section}{\numberline {1}Summary of Changes}{\thepage }{section.1}}
\@writefile{toc}{\contentsline {section}{\numberline {2}Reviewer 1}{\thepage }{section.2}}
\citation{hris,myicdm}
\citation{hustim2013vehicle}
\citation{Dhamaniya2013342}
\@writefile{toc}{\contentsline {section}{\numberline {3}Reviewer 2}{\thepage }{section.3}}
\citation{map1,map2,map3}
\citation{myicdm,hris,sparsetiming,cab2,cab1}
\bibstyle{abbrv}
\bibdata{mantra}
\bibcite{myicdm}{1}
\bibcite{Bogdanov:2011:MHS:2117684.2118218}{2}
\bibcite{export:174345}{3}
\bibcite{Dhamaniya2013342}{4}
\bibcite{map2}{5}
\bibcite{hustim2013vehicle}{6}
\bibcite{map1}{7}
\bibcite{sparsetiming}{8}
\bibcite{cab2}{9}
\bibcite{cab1}{10}
\bibcite{map3}{11}
\bibcite{hris}{12}
\@writefile{toc}{\contentsline {section}{\numberline {4}Reviewer 3}{\thepage }{section.4}}
\@writefile{toc}{\contentsline {section}{\numberline {5}References}{\thepage }{section.5}}
