\relax 
\@writefile{toc}{\contentsline {section}{\numberline {1}Introduction}{\thepage }}
\@writefile{toc}{\contentsline {section}{\numberline {2}The {\secit Body} of The Paper}{\thepage }}
\@writefile{toc}{\contentsline {subsection}{\numberline {2.1}Type Changes and {\subsecit Special} Characters}{\thepage }}
\citation{Lamport:LaTeX}
\citation{Lamport:LaTeX}
\citation{bowman:reasoning}
\citation{clark:pct}
\citation{braams:babel}
\citation{herlihy:methodology}
\citation{clark:pct}
\citation{salas:calculus}
\citation{Lamport:LaTeX}
\citation{Lamport:LaTeX}
\citation{Lamport:LaTeX}
\@writefile{toc}{\contentsline {subsection}{\numberline {2.2}Math Equations}{\thepage }}
\@writefile{toc}{\contentsline {subsubsection}{\numberline {2.2.1}Inline (In-text) Equations}{\thepage }}
\@writefile{toc}{\contentsline {subsubsection}{\numberline {2.2.2}Display Equations}{\thepage }}
\@writefile{toc}{\contentsline {subsection}{\numberline {2.3}Citations}{\thepage }}
\@writefile{lot}{\contentsline {table}{\numberline {1}{\ignorespaces Frequency of Special Characters}}{\thepage }}
\@writefile{toc}{\contentsline {subsection}{\numberline {2.4}Tables}{\thepage }}
\@writefile{toc}{\contentsline {subsection}{\numberline {2.5}Figures}{\thepage }}
\citation{salas:calculus}
\bibstyle{abbrv}
\bibdata{vldb_sample}
\@writefile{lot}{\contentsline {table}{\numberline {2}{\ignorespaces Some Typical Commands}}{\thepage }}
\@writefile{lof}{\contentsline {figure}{\numberline {1}{\ignorespaces A sample black and white graphic (.pdf format).}}{\thepage }}
\newlabel{fig:fly}{{1}{\thepage }}
\@writefile{lof}{\contentsline {figure}{\numberline {2}{\ignorespaces A sample black and white graphic (.pdf format) that has been resized with the \texttt  {includegraphics} command.}}{\thepage }}
\newlabel{fig:bigfly}{{2}{\thepage }}
\@writefile{toc}{\contentsline {subsection}{\numberline {2.6}Theorem-like Constructs}{\thepage }}
\@writefile{toc}{\contentsline {section}{\numberline {3}Conclusions}{\thepage }}
\@writefile{toc}{\contentsline {section}{\numberline {4}Acknowledgments}{\thepage }}
\@writefile{toc}{\contentsline {subsection}{\numberline {4.1}References}{\thepage }}
\@writefile{toc}{\contentsline {section}{\numberline {A}Final Thoughts on Good Layout}{\thepage }}
\@writefile{lof}{\contentsline {figure}{\numberline {3}{\ignorespaces A sample black and white graphic (.pdf format) that needs to span two columns of text.}}{\thepage }}
\newlabel{fig:flies}{{3}{\thepage }}
