0.25 10.597881522165554 16425.870145154964 296.4944422649405
1 12.564102564102564 10016.422815279959 864.4296180010466
4 12.616473396998636 5127.8240109140515 1153.7423260572987
9 10.254537867723764 3843.9691216357187 1116.55059461715