\relax 
\@writefile{toc}{\contentsline {section}{\numberline {1}Introduction}{1}}
\@writefile{toc}{\contentsline {section}{\numberline {2}Definitions}{1}}
\@writefile{toc}{\contentsline {section}{\numberline {3}Offline Learning}{2}}
\@writefile{toc}{\contentsline {section}{\numberline {4}Online Inference Phase}{2}}
\@writefile{toc}{\contentsline {subsection}{\numberline {4.1}P-value based anomaly}{2}}
\@writefile{lof}{\contentsline {figure}{\numberline {1}{\ignorespaces Naive edge count based trajectory anomaly deduction.}}{3}}
\newlabel{fig:fig1}{{1}{3}}
\@writefile{lof}{\contentsline {figure}{\numberline {2}{\ignorespaces Correct interpretation of anomaly.}}{3}}
\newlabel{fig:fig2}{{2}{3}}
\newlabel{def:roadnetwork}{{1}{3}}
\@writefile{lof}{\contentsline {figure}{\numberline {3}{\ignorespaces Scalability issues.}}{4}}
\newlabel{fig:fig3}{{3}{4}}
\@writefile{toc}{\contentsline {subsection}{\numberline {4.2}Maximal anomalous sub-trajectory}{4}}
\newlabel{def:roadnetwork}{{2}{4}}
\@writefile{toc}{\contentsline {subsubsection}{\numberline {4.2.1}Algorithm for longest anomalous sub-sequence generation}{5}}
\@writefile{toc}{\contentsline {subsubsection}{\numberline {4.2.2}Aggregating MAS to infer trajectory level anomaly}{7}}
\@writefile{toc}{\contentsline {subsection}{\numberline {4.3}Aggregating trajectory level inference to conclude person level anomaly}{7}}
\@writefile{loa}{\contentsline {algorithm}{\numberline {1}{\ignorespaces Naive ($\mathbb  {N}, \tau $)}}{8}}
\newlabel{alg:naive}{{1}{8}}
\@writefile{loa}{\contentsline {algorithm}{\numberline {2}{\ignorespaces MFA($\mathbb  {N}, \tau $)}}{9}}
\newlabel{alg:mfa}{{2}{9}}
