%!PS-Adobe-3.0 EPSF-3.0
%%BoundingBox: 9 138 553 633
%%HiResBoundingBox: 9.276 138.497 552.334 632.202
%%Creator: MATLAB, The MathWorks, Inc. Version 8.3.0.532 (R2014a). Operating System: Microsoft Windows 10 Home Single Language.
%%Title: C:\Users\Sayan\SkyDrive\Research\projects\TrajectoryAnomaly\TrajectoryAnomaly\latex\vldb2016\eps\MASratio.eps
%%CreationDate: 11/08/2015  20:20:28
%%DocumentNeededFonts: Helvetica
%%DocumentProcessColors: Cyan Magenta Yellow Black
%%LanguageLevel: 2
%%Pages: 1
%%EndComments

%%BeginProlog
% MathWorks dictionary
/MathWorks 160 dict begin
% definition operators
/bdef {bind def} bind def
/ldef {load def} bind def
/xdef {exch def} bdef
/xstore {exch store} bdef
% operator abbreviations
/c  /clip ldef
/cc /concat ldef
/cp /closepath ldef
/gr /grestore ldef
/gs /gsave ldef
/mt /moveto ldef
/np /newpath ldef
/cm /currentmatrix ldef
/sm /setmatrix ldef
/rm /rmoveto ldef
/rl /rlineto ldef
/s {show newpath} bdef
/sc {setcmykcolor} bdef
/sr /setrgbcolor ldef
/sg /setgray ldef
/w /setlinewidth ldef
/j /setlinejoin ldef
/cap /setlinecap ldef
/rc {rectclip} bdef
/rf {rectfill} bdef
% page state control
/pgsv () def
/bpage {/pgsv save def} bdef
/epage {pgsv restore} bdef
/bplot /gsave ldef
/eplot {stroke grestore} bdef
% orientation switch
/portraitMode 0 def /landscapeMode 1 def /rotateMode 2 def
% coordinate system mappings
/dpi2point 0 def
% font control
/FontSize 0 def
/FMS {/FontSize xstore findfont [FontSize 0 0 FontSize neg 0 0]
  makefont setfont} bdef
/ISOLatin1Encoding where {pop /WindowsLatin1Encoding 256 array bdef
ISOLatin1Encoding WindowsLatin1Encoding copy pop
/.notdef/.notdef/quotesinglbase/florin/quotedblbase/ellipsis/dagger
/daggerdbl/circumflex/perthousand/Scaron/guilsinglleft/OE/.notdef/.notdef
/.notdef/.notdef/quoteleft/quoteright/quotedblleft/quotedblright/bullet
/endash/emdash/tilde/trademark/scaron/guilsinglright/oe/.notdef/.notdef
/Ydieresis WindowsLatin1Encoding 128 32 getinterval astore pop}
{/WindowsLatin1Encoding StandardEncoding bdef} ifelse
/reencode {exch dup where {pop load} {pop StandardEncoding} ifelse
  exch dup 3 1 roll findfont dup length dict begin
  { 1 index /FID ne {def}{pop pop} ifelse } forall
  /Encoding exch def currentdict end definefont pop} bdef
/isroman {findfont /CharStrings get /Agrave known} bdef
/FMSR {3 1 roll 1 index dup isroman {reencode} {pop pop} ifelse
  exch FMS} bdef
/csm {1 dpi2point div -1 dpi2point div scale neg translate
 dup landscapeMode eq {pop -90 rotate}
  {rotateMode eq {90 rotate} if} ifelse} bdef
% line types: solid, dotted, dashed, dotdash
/SO { [] 0 setdash } bdef
/DO { [.5 dpi2point mul 4 dpi2point mul] 0 setdash } bdef
/DA { [6 dpi2point mul] 0 setdash } bdef
/DD { [.5 dpi2point mul 4 dpi2point mul 6 dpi2point mul 4
  dpi2point mul] 0 setdash } bdef
% macros for lines and objects
/L {lineto stroke} bdef
/MP {3 1 roll moveto 1 sub {rlineto} repeat} bdef
/AP {{rlineto} repeat} bdef
/PDlw -1 def
/W {/PDlw currentlinewidth def setlinewidth} def
/PP {closepath eofill} bdef
/DP {closepath stroke} bdef
/MR {4 -2 roll moveto dup  0 exch rlineto exch 0 rlineto
  neg 0 exch rlineto closepath} bdef
/FR {MR stroke} bdef
/PR {MR fill} bdef
/L1i {{currentfile picstr readhexstring pop} image} bdef
/tMatrix matrix def
/MakeOval {newpath tMatrix currentmatrix pop translate scale
0 0 1 0 360 arc tMatrix setmatrix} bdef
/FO {MakeOval stroke} bdef
/PO {MakeOval fill} bdef
/PD {currentlinewidth 2 div 0 360 arc fill
   PDlw -1 eq not {PDlw w /PDlw -1 def} if} def
/FA {newpath tMatrix currentmatrix pop translate scale
  0 0 1 5 -2 roll arc tMatrix setmatrix stroke} bdef
/PA {newpath tMatrix currentmatrix pop	translate 0 0 moveto scale
  0 0 1 5 -2 roll arc closepath tMatrix setmatrix fill} bdef
/FAn {newpath tMatrix currentmatrix pop translate scale
  0 0 1 5 -2 roll arcn tMatrix setmatrix stroke} bdef
/PAn {newpath tMatrix currentmatrix pop translate 0 0 moveto scale
  0 0 1 5 -2 roll arcn closepath tMatrix setmatrix fill} bdef
/vradius 0 def /hradius 0 def /lry 0 def
/lrx 0 def /uly 0 def /ulx 0 def /rad 0 def
/MRR {/vradius xdef /hradius xdef /lry xdef /lrx xdef /uly xdef
  /ulx xdef newpath tMatrix currentmatrix pop ulx hradius add uly
  vradius add translate hradius vradius scale 0 0 1 180 270 arc 
  tMatrix setmatrix lrx hradius sub uly vradius add translate
  hradius vradius scale 0 0 1 270 360 arc tMatrix setmatrix
  lrx hradius sub lry vradius sub translate hradius vradius scale
  0 0 1 0 90 arc tMatrix setmatrix ulx hradius add lry vradius sub
  translate hradius vradius scale 0 0 1 90 180 arc tMatrix setmatrix
  closepath} bdef
/FRR {MRR stroke } bdef
/PRR {MRR fill } bdef
/MlrRR {/lry xdef /lrx xdef /uly xdef /ulx xdef /rad lry uly sub 2 div def
  newpath tMatrix currentmatrix pop ulx rad add uly rad add translate
  rad rad scale 0 0 1 90 270 arc tMatrix setmatrix lrx rad sub lry rad
  sub translate rad rad scale 0 0 1 270 90 arc tMatrix setmatrix
  closepath} bdef
/FlrRR {MlrRR stroke } bdef
/PlrRR {MlrRR fill } bdef
/MtbRR {/lry xdef /lrx xdef /uly xdef /ulx xdef /rad lrx ulx sub 2 div def
  newpath tMatrix currentmatrix pop ulx rad add uly rad add translate
  rad rad scale 0 0 1 180 360 arc tMatrix setmatrix lrx rad sub lry rad
  sub translate rad rad scale 0 0 1 0 180 arc tMatrix setmatrix
  closepath} bdef
/FtbRR {MtbRR stroke } bdef
/PtbRR {MtbRR fill } bdef
/stri 6 array def /dtri 6 array def
/smat 6 array def /dmat 6 array def
/tmat1 6 array def /tmat2 6 array def /dif 3 array def
/asub {/ind2 exch def /ind1 exch def dup dup
  ind1 get exch ind2 get sub exch } bdef
/tri_to_matrix {
  2 0 asub 3 1 asub 4 0 asub 5 1 asub
  dup 0 get exch 1 get 7 -1 roll astore } bdef
/compute_transform {
  dmat dtri tri_to_matrix tmat1 invertmatrix 
  smat stri tri_to_matrix tmat2 concatmatrix } bdef
/ds {stri astore pop} bdef
/dt {dtri astore pop} bdef
/db {2 copy /cols xdef /rows xdef mul dup 3 mul string
  currentfile 
  3 index 0 eq {/ASCIIHexDecode filter}
  {/ASCII85Decode filter 3 index 2 eq {/RunLengthDecode filter} if }
  ifelse exch readstring pop
  dup 0 3 index getinterval /rbmap xdef
  dup 2 index dup getinterval /gbmap xdef
  1 index dup 2 mul exch getinterval /bbmap xdef pop pop}bdef
/it {gs np dtri aload pop moveto lineto lineto cp c
  cols rows 8 compute_transform 
  rbmap gbmap bbmap true 3 colorimage gr}bdef
/il {newpath moveto lineto stroke}bdef
currentdict end def
%%EndProlog

%%BeginSetup
MathWorks begin

0 cap

end
%%EndSetup

%%Page: 1 1
%%BeginPageSetup
%%PageBoundingBox:     1   130   609   662
MathWorks begin
bpage
%%EndPageSetup

%%BeginObject: obj1
bplot

/dpi2point 12 def
portraitMode 0012 7944 csm

    0     0  7307  6381 rc
85 dict begin %Colortable dictionary
/c0 { 0.000000 0.000000 0.000000 sr} bdef
/c1 { 1.000000 1.000000 1.000000 sr} bdef
/c2 { 0.900000 0.000000 0.000000 sr} bdef
/c3 { 0.000000 0.820000 0.000000 sr} bdef
/c4 { 0.000000 0.000000 0.800000 sr} bdef
/c5 { 0.910000 0.820000 0.320000 sr} bdef
/c6 { 1.000000 0.260000 0.820000 sr} bdef
/c7 { 0.000000 0.820000 0.820000 sr} bdef
c0
1 j
1 sg
   0    0 7308 6382 rf
6 w
0 5015 5366 0 0 -5015 1247 5494 4 MP
PP
-5366 0 0 5015 5366 0 0 -5015 1247 5494 5 MP stroke
4 w
DO
SO
6 w
0 sg
1247  479 mt 6613  479 L
1247 5494 mt 6613 5494 L
6613 5494 mt 6613  479 L
1247 5494 mt 1247  479 L
1247 5494 mt 6613 5494 L
1247 5494 mt 1247  479 L
1917 5494 mt 1917 5440 L
1917  479 mt 1917  532 L
%%IncludeResource: font Helvetica
/Helvetica /WindowsLatin1Encoding 360 FMSR

1612 5863 mt 
(1-2) s
2588 5494 mt 2588 5440 L
2588  479 mt 2588  532 L
2283 5863 mt 
(2-3) s
3259 5494 mt 3259 5440 L
3259  479 mt 3259  532 L
2954 5863 mt 
(3-4) s
3930 5494 mt 3930 5440 L
3930  479 mt 3930  532 L
3625 5863 mt 
(4-5) s
4600 5494 mt 4600 5440 L
4600  479 mt 4600  532 L
4295 5863 mt 
(5-6) s
5271 5494 mt 5271 5440 L
5271  479 mt 5271  532 L
4966 5863 mt 
(6-7) s
1247 5494 mt 1300 5494 L
6613 5494 mt 6559 5494 L
1012 5628 mt 
(0) s
1247 4491 mt 1300 4491 L
6613 4491 mt 6559 4491 L
 812 4625 mt 
(20) s
1247 3488 mt 1300 3488 L
6613 3488 mt 6559 3488 L
 812 3622 mt 
(40) s
1247 2485 mt 1300 2485 L
6613 2485 mt 6559 2485 L
 812 2619 mt 
(60) s
1247 1482 mt 1300 1482 L
6613 1482 mt 6559 1482 L
 812 1616 mt 
(80) s
1247  479 mt 1300  479 L
6613  479 mt 6559  479 L
 612  613 mt 
(100) s
1247  479 mt 6613  479 L
1247 5494 mt 6613 5494 L
6613 5494 mt 6613  479 L
1247 5494 mt 1247  479 L
gs 1247 479 5367 5016 rc
/c8 { 0.000000 0.500000 0.400000 sr} bdef
c8
0 3422 537 0 0 -3422 1649 5494 4 MP
PP
0 sg
-537 0 0 3422 537 0 0 -3422 1649 5494 5 MP stroke
c8
0 1205 536 0 0 -1205 2320 5494 4 MP
PP
0 sg
-536 0 0 1205 536 0 0 -1205 2320 5494 5 MP stroke
c8
0 264 537 0 0 -264 2990 5494 4 MP
PP
0 sg
-537 0 0 264 537 0 0 -264 2990 5494 5 MP stroke
c8
0 81 537 0 0 -81 3661 5494 4 MP
PP
0 sg
-537 0 0 81 537 0 0 -81 3661 5494 5 MP stroke
c8
0 23 537 0 0 -23 4332 5494 4 MP
PP
0 sg
-537 0 0 23 537 0 0 -23 4332 5494 5 MP stroke
c8
0 10 536 0 0 -10 5003 5494 4 MP
PP
0 sg
-536 0 0 10 536 0 0 -10 5003 5494 5 MP stroke
5366 0 1247 5494 2 MP stroke
gr

%%IncludeResource: font Helvetica
/Helvetica /WindowsLatin1Encoding 480 FMSR

 449 4626 mt  -90 rotate
(Distribution \(%\)) s
90 rotate
3369 6271 mt 
(Ratio) s
%%IncludeResource: font Helvetica
/Helvetica /WindowsLatin1Encoding 120 FMSR

1230 5537 mt 
( ) s
6597  521 mt 
( ) s
%%IncludeResource: font Helvetica
/Helvetica /WindowsLatin1Encoding 360 FMSR

5278  900 mt 
(T-Drive) s
gs 4782 539 1773 467 rc
c8
-381 0 0 329 381 0 0 -329 4858 936 5 MP
PP
0 sg
0 0 -381 0 0 329 381 0 0 -329 4858 936 6 MP stroke
gr


end %%Color Dict

eplot
%%EndObject

epage
end

showpage

%%Trailer
%%EOF
