%!PS-Adobe-3.0 EPSF-3.0
%%BoundingBox: 9 118 568 641
%%HiResBoundingBox: 9.283 118.950 567.250 640.626
%%Creator: MATLAB, The MathWorks, Inc. Version 8.3.0.532 (R2014a). Operating System: Microsoft Windows 10 Home Single Language.
%%Title: C:\Users\Sayan\SkyDrive\Research\projects\TrajectoryAnomaly\TrajectoryAnomaly\latex\vldb2016\eps\stddevaccuracy.eps
%%CreationDate: 11/12/2015  23:08:50
%%DocumentNeededFonts: Helvetica
%%DocumentProcessColors: Cyan Magenta Yellow Black
%%LanguageLevel: 2
%%Pages: 1
%%EndComments

%%BeginProlog
% MathWorks dictionary
/MathWorks 160 dict begin
% definition operators
/bdef {bind def} bind def
/ldef {load def} bind def
/xdef {exch def} bdef
/xstore {exch store} bdef
% operator abbreviations
/c  /clip ldef
/cc /concat ldef
/cp /closepath ldef
/gr /grestore ldef
/gs /gsave ldef
/mt /moveto ldef
/np /newpath ldef
/cm /currentmatrix ldef
/sm /setmatrix ldef
/rm /rmoveto ldef
/rl /rlineto ldef
/s {show newpath} bdef
/sc {setcmykcolor} bdef
/sr /setrgbcolor ldef
/sg /setgray ldef
/w /setlinewidth ldef
/j /setlinejoin ldef
/cap /setlinecap ldef
/rc {rectclip} bdef
/rf {rectfill} bdef
% page state control
/pgsv () def
/bpage {/pgsv save def} bdef
/epage {pgsv restore} bdef
/bplot /gsave ldef
/eplot {stroke grestore} bdef
% orientation switch
/portraitMode 0 def /landscapeMode 1 def /rotateMode 2 def
% coordinate system mappings
/dpi2point 0 def
% font control
/FontSize 0 def
/FMS {/FontSize xstore findfont [FontSize 0 0 FontSize neg 0 0]
  makefont setfont} bdef
/ISOLatin1Encoding where {pop /WindowsLatin1Encoding 256 array bdef
ISOLatin1Encoding WindowsLatin1Encoding copy pop
/.notdef/.notdef/quotesinglbase/florin/quotedblbase/ellipsis/dagger
/daggerdbl/circumflex/perthousand/Scaron/guilsinglleft/OE/.notdef/.notdef
/.notdef/.notdef/quoteleft/quoteright/quotedblleft/quotedblright/bullet
/endash/emdash/tilde/trademark/scaron/guilsinglright/oe/.notdef/.notdef
/Ydieresis WindowsLatin1Encoding 128 32 getinterval astore pop}
{/WindowsLatin1Encoding StandardEncoding bdef} ifelse
/reencode {exch dup where {pop load} {pop StandardEncoding} ifelse
  exch dup 3 1 roll findfont dup length dict begin
  { 1 index /FID ne {def}{pop pop} ifelse } forall
  /Encoding exch def currentdict end definefont pop} bdef
/isroman {findfont /CharStrings get /Agrave known} bdef
/FMSR {3 1 roll 1 index dup isroman {reencode} {pop pop} ifelse
  exch FMS} bdef
/csm {1 dpi2point div -1 dpi2point div scale neg translate
 dup landscapeMode eq {pop -90 rotate}
  {rotateMode eq {90 rotate} if} ifelse} bdef
% line types: solid, dotted, dashed, dotdash
/SO { [] 0 setdash } bdef
/DO { [.5 dpi2point mul 4 dpi2point mul] 0 setdash } bdef
/DA { [6 dpi2point mul] 0 setdash } bdef
/DD { [.5 dpi2point mul 4 dpi2point mul 6 dpi2point mul 4
  dpi2point mul] 0 setdash } bdef
% macros for lines and objects
/L {lineto stroke} bdef
/MP {3 1 roll moveto 1 sub {rlineto} repeat} bdef
/AP {{rlineto} repeat} bdef
/PDlw -1 def
/W {/PDlw currentlinewidth def setlinewidth} def
/PP {closepath eofill} bdef
/DP {closepath stroke} bdef
/MR {4 -2 roll moveto dup  0 exch rlineto exch 0 rlineto
  neg 0 exch rlineto closepath} bdef
/FR {MR stroke} bdef
/PR {MR fill} bdef
/L1i {{currentfile picstr readhexstring pop} image} bdef
/tMatrix matrix def
/MakeOval {newpath tMatrix currentmatrix pop translate scale
0 0 1 0 360 arc tMatrix setmatrix} bdef
/FO {MakeOval stroke} bdef
/PO {MakeOval fill} bdef
/PD {currentlinewidth 2 div 0 360 arc fill
   PDlw -1 eq not {PDlw w /PDlw -1 def} if} def
/FA {newpath tMatrix currentmatrix pop translate scale
  0 0 1 5 -2 roll arc tMatrix setmatrix stroke} bdef
/PA {newpath tMatrix currentmatrix pop	translate 0 0 moveto scale
  0 0 1 5 -2 roll arc closepath tMatrix setmatrix fill} bdef
/FAn {newpath tMatrix currentmatrix pop translate scale
  0 0 1 5 -2 roll arcn tMatrix setmatrix stroke} bdef
/PAn {newpath tMatrix currentmatrix pop translate 0 0 moveto scale
  0 0 1 5 -2 roll arcn closepath tMatrix setmatrix fill} bdef
/vradius 0 def /hradius 0 def /lry 0 def
/lrx 0 def /uly 0 def /ulx 0 def /rad 0 def
/MRR {/vradius xdef /hradius xdef /lry xdef /lrx xdef /uly xdef
  /ulx xdef newpath tMatrix currentmatrix pop ulx hradius add uly
  vradius add translate hradius vradius scale 0 0 1 180 270 arc 
  tMatrix setmatrix lrx hradius sub uly vradius add translate
  hradius vradius scale 0 0 1 270 360 arc tMatrix setmatrix
  lrx hradius sub lry vradius sub translate hradius vradius scale
  0 0 1 0 90 arc tMatrix setmatrix ulx hradius add lry vradius sub
  translate hradius vradius scale 0 0 1 90 180 arc tMatrix setmatrix
  closepath} bdef
/FRR {MRR stroke } bdef
/PRR {MRR fill } bdef
/MlrRR {/lry xdef /lrx xdef /uly xdef /ulx xdef /rad lry uly sub 2 div def
  newpath tMatrix currentmatrix pop ulx rad add uly rad add translate
  rad rad scale 0 0 1 90 270 arc tMatrix setmatrix lrx rad sub lry rad
  sub translate rad rad scale 0 0 1 270 90 arc tMatrix setmatrix
  closepath} bdef
/FlrRR {MlrRR stroke } bdef
/PlrRR {MlrRR fill } bdef
/MtbRR {/lry xdef /lrx xdef /uly xdef /ulx xdef /rad lrx ulx sub 2 div def
  newpath tMatrix currentmatrix pop ulx rad add uly rad add translate
  rad rad scale 0 0 1 180 360 arc tMatrix setmatrix lrx rad sub lry rad
  sub translate rad rad scale 0 0 1 0 180 arc tMatrix setmatrix
  closepath} bdef
/FtbRR {MtbRR stroke } bdef
/PtbRR {MtbRR fill } bdef
/stri 6 array def /dtri 6 array def
/smat 6 array def /dmat 6 array def
/tmat1 6 array def /tmat2 6 array def /dif 3 array def
/asub {/ind2 exch def /ind1 exch def dup dup
  ind1 get exch ind2 get sub exch } bdef
/tri_to_matrix {
  2 0 asub 3 1 asub 4 0 asub 5 1 asub
  dup 0 get exch 1 get 7 -1 roll astore } bdef
/compute_transform {
  dmat dtri tri_to_matrix tmat1 invertmatrix 
  smat stri tri_to_matrix tmat2 concatmatrix } bdef
/ds {stri astore pop} bdef
/dt {dtri astore pop} bdef
/db {2 copy /cols xdef /rows xdef mul dup 3 mul string
  currentfile 
  3 index 0 eq {/ASCIIHexDecode filter}
  {/ASCII85Decode filter 3 index 2 eq {/RunLengthDecode filter} if }
  ifelse exch readstring pop
  dup 0 3 index getinterval /rbmap xdef
  dup 2 index dup getinterval /gbmap xdef
  1 index dup 2 mul exch getinterval /bbmap xdef pop pop}bdef
/it {gs np dtri aload pop moveto lineto lineto cp c
  cols rows 8 compute_transform 
  rbmap gbmap bbmap true 3 colorimage gr}bdef
/il {newpath moveto lineto stroke}bdef
currentdict end def
%%EndProlog

%%BeginSetup
MathWorks begin

0 cap

end
%%EndSetup

%%Page: 1 1
%%BeginPageSetup
%%PageBoundingBox:     1   118   609   672
MathWorks begin
bpage
%%EndPageSetup

%%BeginObject: obj1
bplot

/dpi2point 12 def
portraitMode 0012 8064 csm

    0     0  7299  6642 rc
85 dict begin %Colortable dictionary
/c0 { 0.000000 0.000000 0.000000 sr} bdef
/c1 { 1.000000 1.000000 1.000000 sr} bdef
/c2 { 0.900000 0.000000 0.000000 sr} bdef
/c3 { 0.000000 0.820000 0.000000 sr} bdef
/c4 { 0.000000 0.000000 0.800000 sr} bdef
/c5 { 0.910000 0.820000 0.320000 sr} bdef
/c6 { 1.000000 0.260000 0.820000 sr} bdef
/c7 { 0.000000 0.820000 0.820000 sr} bdef
c0
1 j
1 sg
   0    0 7300 6643 rf
6 w
0 5257 5259 0 0 -5257 1347 5755 4 MP
PP
-5259 0 0 5257 5259 0 0 -5257 1347 5755 5 MP stroke
4 w
DO
SO
6 w
0 sg
1347  498 mt 6606  498 L
1347 5755 mt 6606 5755 L
6606 5755 mt 6606  498 L
1347 5755 mt 1347  498 L
1347 5755 mt 6606 5755 L
1347 5755 mt 1347  498 L
1347 5755 mt 1347 5702 L
1347  498 mt 1347  550 L
%%IncludeResource: font Helvetica
/Helvetica /WindowsLatin1Encoding 360 FMSR

1247 6124 mt 
(0) s
3100 5755 mt 3100 5702 L
3100  498 mt 3100  550 L
3000 6124 mt 
(5) s
4853 5755 mt 4853 5702 L
4853  498 mt 4853  550 L
4653 6124 mt 
(10) s
6606 5755 mt 6606 5702 L
6606  498 mt 6606  550 L
6406 6124 mt 
(15) s
1347 5755 mt 1399 5755 L
6606 5755 mt 6553 5755 L
 612 5889 mt 
(0.75) s
1347 4703 mt 1399 4703 L
6606 4703 mt 6553 4703 L
 812 4837 mt 
(0.8) s
1347 3652 mt 1399 3652 L
6606 3652 mt 6553 3652 L
 612 3786 mt 
(0.85) s
1347 2600 mt 1399 2600 L
6606 2600 mt 6553 2600 L
 812 2734 mt 
(0.9) s
1347 1549 mt 1399 1549 L
6606 1549 mt 6553 1549 L
 612 1683 mt 
(0.95) s
1347  498 mt 1399  498 L
6606  498 mt 6553  498 L
1112  632 mt 
(1) s
1347  498 mt 6606  498 L
1347 5755 mt 6606 5755 L
6606 5755 mt 6606  498 L
1347 5755 mt 1347  498 L
gs 1347 498 5260 5258 rc
30 w
/c8 { 0.000000 0.000000 1.000000 sr} bdef
c8
351 -211 351 -210 350 0 351 210 350 211 351 0 351 210 350 0 
351 210 350 211 351 0 351 630 2398 1339 13 MP stroke
gr

30 w
c8
0 j
0 -188 -188 0 0 188 188 0 2304 1245 5 MP
DP
0 -188 -188 0 0 188 188 0 2655 1875 5 MP
DP
0 -188 -188 0 0 188 188 0 3006 1875 5 MP
DP
0 -188 -188 0 0 188 188 0 3356 2086 5 MP
DP
0 -188 -188 0 0 188 188 0 3707 2296 5 MP
DP
0 -188 -188 0 0 188 188 0 4057 2296 5 MP
DP
0 -188 -188 0 0 188 188 0 4408 2506 5 MP
DP
0 -188 -188 0 0 188 188 0 4759 2506 5 MP
DP
0 -188 -188 0 0 188 188 0 5109 2717 5 MP
DP
0 -188 -188 0 0 188 188 0 5460 2927 5 MP
DP
0 -188 -188 0 0 188 188 0 5810 2927 5 MP
DP
0 -188 -188 0 0 188 188 0 6161 2717 5 MP
DP
0 -188 -188 0 0 188 188 0 6512 2506 5 MP
DP
gs 1347 498 5260 5258 rc
/c9 { 0.000000 0.500000 0.000000 sr} bdef
c9
351 0 351 0 350 0 351 210 350 0 351 210 351 211 350 0 
351 0 350 0 351 0 351 631 2398 1969 13 MP stroke
gr

c9
0 276 -239 -138 239 -138 2318 2107 4 MP
DP
0 276 -239 -138 239 -138 2669 2738 4 MP
DP
0 276 -239 -138 239 -138 3020 2738 4 MP
DP
0 276 -239 -138 239 -138 3370 2738 4 MP
DP
0 276 -239 -138 239 -138 3721 2738 4 MP
DP
0 276 -239 -138 239 -138 4071 2738 4 MP
DP
0 276 -239 -138 239 -138 4422 2949 4 MP
DP
0 276 -239 -138 239 -138 4773 3159 4 MP
DP
0 276 -239 -138 239 -138 5123 3159 4 MP
DP
0 276 -239 -138 239 -138 5474 3369 4 MP
DP
0 276 -239 -138 239 -138 5824 3369 4 MP
DP
0 276 -239 -138 239 -138 6175 3369 4 MP
DP
0 276 -239 -138 239 -138 6526 3369 4 MP
DP
gs 1347 498 5260 5258 rc
/c10 { 1.000000 0.000000 0.000000 sr} bdef
c10
351 0 351 -210 350 210 351 0 350 0 351 0 351 0 350 420 
351 0 350 631 351 421 351 210 2398 1549 13 MP stroke
gr

c10
120 159 -120 159 -120 -159 120 -159 2398 1708 5 MP
DP
120 159 -120 159 -120 -159 120 -159 2749 1918 5 MP
DP
120 159 -120 159 -120 -159 120 -159 3100 2339 5 MP
DP
120 159 -120 159 -120 -159 120 -159 3450 2970 5 MP
DP
120 159 -120 159 -120 -159 120 -159 3801 2970 5 MP
DP
120 159 -120 159 -120 -159 120 -159 4151 3390 5 MP
DP
120 159 -120 159 -120 -159 120 -159 4502 3390 5 MP
DP
120 159 -120 159 -120 -159 120 -159 4853 3390 5 MP
DP
120 159 -120 159 -120 -159 120 -159 5203 3390 5 MP
DP
120 159 -120 159 -120 -159 120 -159 5554 3390 5 MP
DP
120 159 -120 159 -120 -159 120 -159 5904 3600 5 MP
DP
120 159 -120 159 -120 -159 120 -159 6255 3390 5 MP
DP
120 159 -120 159 -120 -159 120 -159 6606 3390 5 MP
DP
gs 1347 498 5260 5258 rc
/c11 { 0.000000 0.750000 0.750000 sr} bdef
c11
351 210 351 -210 350 0 351 0 350 -210 351 -210 351 210 350 1472 
351 -210 350 -211 351 0 351 421 2398 1759 13 MP stroke
gr

c11
 120  120 2398 1759 FO
 120  120 2749 2180 FO
 120  120 3100 2180 FO
 120  120 3450 1969 FO
 120  120 3801 1759 FO
 120  120 4151 3231 FO
 120  120 4502 3441 FO
 120  120 4853 3231 FO
 120  120 5203 3021 FO
 120  120 5554 3021 FO
 120  120 5904 3021 FO
 120  120 6255 2811 FO
 120  120 6606 3021 FO
gs 1347 498 5260 5258 rc
gr

0 sg
%%IncludeResource: font Helvetica
/Helvetica /WindowsLatin1Encoding 480 FMSR

 449 4111 mt  -90 rotate
(Accuracy) s
90 rotate
1619 6532 mt 
(Size of Sub-trajectory) s
%%IncludeResource: font Helvetica
/Helvetica /WindowsLatin1Encoding 120 FMSR

1330 5798 mt 
( ) s
6590  540 mt 
( ) s
6 w
1 sg
0 1758 1712 0 0 -1758 1508 5477 4 MP
PP
-1712 0 0 1758 1712 0 0 -1758 1508 5477 5 MP stroke
4 w
DO
SO
6 w
0 sg
1508 3719 mt 3220 3719 L
1508 5477 mt 3220 5477 L
3220 5477 mt 3220 3719 L
1508 5477 mt 1508 3719 L
1508 5477 mt 3220 5477 L
1508 5477 mt 1508 3719 L
1508 3719 mt 3220 3719 L
1508 5477 mt 3220 5477 L
3220 5477 mt 3220 3719 L
1508 5477 mt 1508 3719 L
%%IncludeResource: font Helvetica
/Helvetica /WindowsLatin1Encoding 360 FMSR

2006 4082 mt 
(Bus) s
gs 1508 3719 1713 1759 rc
30 w
c8
383 0 1584 3954 2 MP stroke
gr

30 w
c8
gs 1503 3682 545 545 rc
0 -188 -188 0 0 188 188 0 1681 3860 5 MP
DP
gr

gs 1508 3719 1713 1759 rc
gr

0 sg
2006 4511 mt 
(Car) s
gs 1508 3719 1713 1759 rc
c9
383 0 1584 4383 2 MP stroke
gr

c9
gs 1503 4111 545 545 rc
0 276 -239 -138 239 -138 1695 4521 4 MP
DP
gr

gs 1508 3719 1713 1759 rc
gr

0 sg
2006 4940 mt 
(Walk) s
gs 1508 3719 1713 1759 rc
c10
383 0 1584 4812 2 MP stroke
gr

c10
gs 1503 4540 545 545 rc
120 159 -120 159 -120 -159 120 -159 1775 4971 5 MP
DP
gr

gs 1508 3719 1713 1759 rc
gr

0 sg
2006 5369 mt 
(T-drive) s
gs 1508 3719 1713 1759 rc
c11
383 0 1584 5241 2 MP stroke
gr

c11
gs 1503 4969 545 545 rc
 120  120 1775 5241 FO
gr

gs 1508 3719 1713 1759 rc
6 w
gr

6 w

end %%Color Dict

eplot
%%EndObject

epage
end

showpage

%%Trailer
%%EOF
