%!PS-Adobe-3.0 EPSF-3.0
%%BoundingBox: 46 156 551 610
%%HiResBoundingBox: 46.958 156.948 551.000 609.216
%%Creator: MATLAB, The MathWorks, Inc. Version 8.3.0.532 (R2014a). Operating System: Microsoft Windows 10 Home Single Language.
%%Title: C:\Users\Sayan\SkyDrive\Research\projects\TrajectoryAnomaly\TrajectoryAnomaly\latex\vldb2016\eps\meanaccuracy.eps
%%CreationDate: 11/12/2015  23:10:52
%%DocumentNeededFonts: Helvetica
%%DocumentProcessColors: Cyan Magenta Yellow Black
%%LanguageLevel: 2
%%Pages: 1
%%EndComments

%%BeginProlog
% MathWorks dictionary
/MathWorks 160 dict begin
% definition operators
/bdef {bind def} bind def
/ldef {load def} bind def
/xdef {exch def} bdef
/xstore {exch store} bdef
% operator abbreviations
/c  /clip ldef
/cc /concat ldef
/cp /closepath ldef
/gr /grestore ldef
/gs /gsave ldef
/mt /moveto ldef
/np /newpath ldef
/cm /currentmatrix ldef
/sm /setmatrix ldef
/rm /rmoveto ldef
/rl /rlineto ldef
/s {show newpath} bdef
/sc {setcmykcolor} bdef
/sr /setrgbcolor ldef
/sg /setgray ldef
/w /setlinewidth ldef
/j /setlinejoin ldef
/cap /setlinecap ldef
/rc {rectclip} bdef
/rf {rectfill} bdef
% page state control
/pgsv () def
/bpage {/pgsv save def} bdef
/epage {pgsv restore} bdef
/bplot /gsave ldef
/eplot {stroke grestore} bdef
% orientation switch
/portraitMode 0 def /landscapeMode 1 def /rotateMode 2 def
% coordinate system mappings
/dpi2point 0 def
% font control
/FontSize 0 def
/FMS {/FontSize xstore findfont [FontSize 0 0 FontSize neg 0 0]
  makefont setfont} bdef
/ISOLatin1Encoding where {pop /WindowsLatin1Encoding 256 array bdef
ISOLatin1Encoding WindowsLatin1Encoding copy pop
/.notdef/.notdef/quotesinglbase/florin/quotedblbase/ellipsis/dagger
/daggerdbl/circumflex/perthousand/Scaron/guilsinglleft/OE/.notdef/.notdef
/.notdef/.notdef/quoteleft/quoteright/quotedblleft/quotedblright/bullet
/endash/emdash/tilde/trademark/scaron/guilsinglright/oe/.notdef/.notdef
/Ydieresis WindowsLatin1Encoding 128 32 getinterval astore pop}
{/WindowsLatin1Encoding StandardEncoding bdef} ifelse
/reencode {exch dup where {pop load} {pop StandardEncoding} ifelse
  exch dup 3 1 roll findfont dup length dict begin
  { 1 index /FID ne {def}{pop pop} ifelse } forall
  /Encoding exch def currentdict end definefont pop} bdef
/isroman {findfont /CharStrings get /Agrave known} bdef
/FMSR {3 1 roll 1 index dup isroman {reencode} {pop pop} ifelse
  exch FMS} bdef
/csm {1 dpi2point div -1 dpi2point div scale neg translate
 dup landscapeMode eq {pop -90 rotate}
  {rotateMode eq {90 rotate} if} ifelse} bdef
% line types: solid, dotted, dashed, dotdash
/SO { [] 0 setdash } bdef
/DO { [.5 dpi2point mul 4 dpi2point mul] 0 setdash } bdef
/DA { [6 dpi2point mul] 0 setdash } bdef
/DD { [.5 dpi2point mul 4 dpi2point mul 6 dpi2point mul 4
  dpi2point mul] 0 setdash } bdef
% macros for lines and objects
/L {lineto stroke} bdef
/MP {3 1 roll moveto 1 sub {rlineto} repeat} bdef
/AP {{rlineto} repeat} bdef
/PDlw -1 def
/W {/PDlw currentlinewidth def setlinewidth} def
/PP {closepath eofill} bdef
/DP {closepath stroke} bdef
/MR {4 -2 roll moveto dup  0 exch rlineto exch 0 rlineto
  neg 0 exch rlineto closepath} bdef
/FR {MR stroke} bdef
/PR {MR fill} bdef
/L1i {{currentfile picstr readhexstring pop} image} bdef
/tMatrix matrix def
/MakeOval {newpath tMatrix currentmatrix pop translate scale
0 0 1 0 360 arc tMatrix setmatrix} bdef
/FO {MakeOval stroke} bdef
/PO {MakeOval fill} bdef
/PD {currentlinewidth 2 div 0 360 arc fill
   PDlw -1 eq not {PDlw w /PDlw -1 def} if} def
/FA {newpath tMatrix currentmatrix pop translate scale
  0 0 1 5 -2 roll arc tMatrix setmatrix stroke} bdef
/PA {newpath tMatrix currentmatrix pop	translate 0 0 moveto scale
  0 0 1 5 -2 roll arc closepath tMatrix setmatrix fill} bdef
/FAn {newpath tMatrix currentmatrix pop translate scale
  0 0 1 5 -2 roll arcn tMatrix setmatrix stroke} bdef
/PAn {newpath tMatrix currentmatrix pop translate 0 0 moveto scale
  0 0 1 5 -2 roll arcn closepath tMatrix setmatrix fill} bdef
/vradius 0 def /hradius 0 def /lry 0 def
/lrx 0 def /uly 0 def /ulx 0 def /rad 0 def
/MRR {/vradius xdef /hradius xdef /lry xdef /lrx xdef /uly xdef
  /ulx xdef newpath tMatrix currentmatrix pop ulx hradius add uly
  vradius add translate hradius vradius scale 0 0 1 180 270 arc 
  tMatrix setmatrix lrx hradius sub uly vradius add translate
  hradius vradius scale 0 0 1 270 360 arc tMatrix setmatrix
  lrx hradius sub lry vradius sub translate hradius vradius scale
  0 0 1 0 90 arc tMatrix setmatrix ulx hradius add lry vradius sub
  translate hradius vradius scale 0 0 1 90 180 arc tMatrix setmatrix
  closepath} bdef
/FRR {MRR stroke } bdef
/PRR {MRR fill } bdef
/MlrRR {/lry xdef /lrx xdef /uly xdef /ulx xdef /rad lry uly sub 2 div def
  newpath tMatrix currentmatrix pop ulx rad add uly rad add translate
  rad rad scale 0 0 1 90 270 arc tMatrix setmatrix lrx rad sub lry rad
  sub translate rad rad scale 0 0 1 270 90 arc tMatrix setmatrix
  closepath} bdef
/FlrRR {MlrRR stroke } bdef
/PlrRR {MlrRR fill } bdef
/MtbRR {/lry xdef /lrx xdef /uly xdef /ulx xdef /rad lrx ulx sub 2 div def
  newpath tMatrix currentmatrix pop ulx rad add uly rad add translate
  rad rad scale 0 0 1 180 360 arc tMatrix setmatrix lrx rad sub lry rad
  sub translate rad rad scale 0 0 1 0 180 arc tMatrix setmatrix
  closepath} bdef
/FtbRR {MtbRR stroke } bdef
/PtbRR {MtbRR fill } bdef
/stri 6 array def /dtri 6 array def
/smat 6 array def /dmat 6 array def
/tmat1 6 array def /tmat2 6 array def /dif 3 array def
/asub {/ind2 exch def /ind1 exch def dup dup
  ind1 get exch ind2 get sub exch } bdef
/tri_to_matrix {
  2 0 asub 3 1 asub 4 0 asub 5 1 asub
  dup 0 get exch 1 get 7 -1 roll astore } bdef
/compute_transform {
  dmat dtri tri_to_matrix tmat1 invertmatrix 
  smat stri tri_to_matrix tmat2 concatmatrix } bdef
/ds {stri astore pop} bdef
/dt {dtri astore pop} bdef
/db {2 copy /cols xdef /rows xdef mul dup 3 mul string
  currentfile 
  3 index 0 eq {/ASCIIHexDecode filter}
  {/ASCII85Decode filter 3 index 2 eq {/RunLengthDecode filter} if }
  ifelse exch readstring pop
  dup 0 3 index getinterval /rbmap xdef
  dup 2 index dup getinterval /gbmap xdef
  1 index dup 2 mul exch getinterval /bbmap xdef pop pop}bdef
/it {gs np dtri aload pop moveto lineto lineto cp c
  cols rows 8 compute_transform 
  rbmap gbmap bbmap true 3 colorimage gr}bdef
/il {newpath moveto lineto stroke}bdef
currentdict end def
%%EndProlog

%%BeginSetup
MathWorks begin

0 cap

end
%%EndSetup

%%Page: 1 1
%%BeginPageSetup
%%PageBoundingBox:    22   156   589   635
MathWorks begin
bpage
%%EndPageSetup

%%BeginObject: obj1
bplot

/dpi2point 12 def
portraitMode 0264 7620 csm

    0     0  6805  5742 rc
85 dict begin %Colortable dictionary
/c0 { 0.000000 0.000000 0.000000 sr} bdef
/c1 { 1.000000 1.000000 1.000000 sr} bdef
/c2 { 0.900000 0.000000 0.000000 sr} bdef
/c3 { 0.000000 0.820000 0.000000 sr} bdef
/c4 { 0.000000 0.000000 0.800000 sr} bdef
/c5 { 0.910000 0.820000 0.320000 sr} bdef
/c6 { 1.000000 0.260000 0.820000 sr} bdef
/c7 { 0.000000 0.820000 0.820000 sr} bdef
c0
1 j
1 sg
   0    0 6806 5743 rf
6 w
0 4425 4812 0 0 -4425 1347 4855 4 MP
PP
-4812 0 0 4425 4812 0 0 -4425 1347 4855 5 MP stroke
4 w
DO
SO
6 w
0 sg
1347  430 mt 6159  430 L
1347 4855 mt 6159 4855 L
6159 4855 mt 6159  430 L
1347 4855 mt 1347  430 L
1347 4855 mt 6159 4855 L
1347 4855 mt 1347  430 L
1347 4855 mt 1347 4806 L
1347  431 mt 1347  479 L
%%IncludeResource: font Helvetica
/Helvetica /WindowsLatin1Encoding 360 FMSR

1247 5224 mt 
(0) s
2951 4855 mt 2951 4806 L
2951  431 mt 2951  479 L
2851 5224 mt 
(5) s
4555 4855 mt 4555 4806 L
4555  431 mt 4555  479 L
4355 5224 mt 
(10) s
6159 4855 mt 6159 4806 L
6159  431 mt 6159  479 L
5959 5224 mt 
(15) s
1347 4854 mt 1395 4854 L
6159 4854 mt 6110 4854 L
 812 4988 mt 
(0.7) s
1347 3380 mt 1395 3380 L
6159 3380 mt 6110 3380 L
 812 3514 mt 
(0.8) s
1347 1905 mt 1395 1905 L
6159 1905 mt 6110 1905 L
 812 2039 mt 
(0.9) s
1347  431 mt 1395  431 L
6159  431 mt 6110  431 L
1112  565 mt 
(1) s
1347  430 mt 6159  430 L
1347 4855 mt 6159 4855 L
6159 4855 mt 6159  430 L
1347 4855 mt 1347  430 L
gs 1347 431 4813 4425 rc
30 w
/c8 { 0.000000 0.000000 1.000000 sr} bdef
c8
321 0 321 295 321 147 321 148 320 0 321 147 321 148 321 0 
321 0 320 147 321 148 321 0 2309 725 13 MP stroke
gr

30 w
c8
0 j
0 -188 -188 0 0 188 188 0 2215 631 5 MP
DP
0 -188 -188 0 0 188 188 0 2536 631 5 MP
DP
0 -188 -188 0 0 188 188 0 2857 779 5 MP
DP
0 -188 -188 0 0 188 188 0 3177 926 5 MP
DP
0 -188 -188 0 0 188 188 0 3498 926 5 MP
DP
0 -188 -188 0 0 188 188 0 3819 926 5 MP
DP
0 -188 -188 0 0 188 188 0 4140 1074 5 MP
DP
0 -188 -188 0 0 188 188 0 4461 1221 5 MP
DP
0 -188 -188 0 0 188 188 0 4781 1221 5 MP
DP
0 -188 -188 0 0 188 188 0 5102 1369 5 MP
DP
0 -188 -188 0 0 188 188 0 5423 1516 5 MP
DP
0 -188 -188 0 0 188 188 0 5744 1811 5 MP
DP
0 -188 -188 0 0 188 188 0 6065 1811 5 MP
DP
gs 1347 431 4813 4425 rc
/c9 { 0.000000 0.500000 0.000000 sr} bdef
c9
321 0 321 0 321 0 321 0 320 0 321 0 321 147 321 -147 
321 0 320 295 321 442 321 148 2309 1020 13 MP stroke
gr

c9
0 276 -239 -138 239 -138 2229 1158 4 MP
DP
0 276 -239 -138 239 -138 2550 1306 4 MP
DP
0 276 -239 -138 239 -138 2871 1748 4 MP
DP
0 276 -239 -138 239 -138 3191 2043 4 MP
DP
0 276 -239 -138 239 -138 3512 2043 4 MP
DP
0 276 -239 -138 239 -138 3833 1896 4 MP
DP
0 276 -239 -138 239 -138 4154 2043 4 MP
DP
0 276 -239 -138 239 -138 4475 2043 4 MP
DP
0 276 -239 -138 239 -138 4795 2043 4 MP
DP
0 276 -239 -138 239 -138 5116 2043 4 MP
DP
0 276 -239 -138 239 -138 5437 2043 4 MP
DP
0 276 -239 -138 239 -138 5758 2043 4 MP
DP
0 276 -239 -138 239 -138 6079 2043 4 MP
DP
gs 1347 431 4813 4425 rc
/c10 { 1.000000 0.000000 0.000000 sr} bdef
c10
321 148 321 0 321 0 321 0 320 0 321 -148 321 148 321 0 
321 0 320 -148 321 0 321 295 2309 873 13 MP stroke
gr

c10
120 159 -120 159 -120 -159 120 -159 2309 1032 5 MP
DP
120 159 -120 159 -120 -159 120 -159 2630 1327 5 MP
DP
120 159 -120 159 -120 -159 120 -159 2951 1327 5 MP
DP
120 159 -120 159 -120 -159 120 -159 3271 1179 5 MP
DP
120 159 -120 159 -120 -159 120 -159 3592 1179 5 MP
DP
120 159 -120 159 -120 -159 120 -159 3913 1179 5 MP
DP
120 159 -120 159 -120 -159 120 -159 4234 1327 5 MP
DP
120 159 -120 159 -120 -159 120 -159 4555 1179 5 MP
DP
120 159 -120 159 -120 -159 120 -159 4875 1179 5 MP
DP
120 159 -120 159 -120 -159 120 -159 5196 1179 5 MP
DP
120 159 -120 159 -120 -159 120 -159 5517 1179 5 MP
DP
120 159 -120 159 -120 -159 120 -159 5838 1179 5 MP
DP
120 159 -120 159 -120 -159 120 -159 6159 1327 5 MP
DP
gs 1347 431 4813 4425 rc
/c11 { 0.000000 0.750000 0.750000 sr} bdef
c11
321 0 321 0 321 148 321 0 320 -148 321 148 321 0 321 0 
321 147 320 0 321 -147 321 147 2309 578 13 MP stroke
gr

c11
 120  120 2309  578 FO
 120  120 2630  725 FO
 120  120 2951  578 FO
 120  120 3271  578 FO
 120  120 3592  725 FO
 120  120 3913  725 FO
 120  120 4234  725 FO
 120  120 4555  873 FO
 120  120 4875  725 FO
 120  120 5196  725 FO
 120  120 5517  873 FO
 120  120 5838  873 FO
 120  120 6159  873 FO
gs 1347 431 4813 4425 rc
gr

0 sg
%%IncludeResource: font Helvetica
/Helvetica /WindowsLatin1Encoding 480 FMSR

 649 3628 mt  -90 rotate
(Accuracy) s
90 rotate
1396 5632 mt 
(Size of Sub-trajectory) s
%%IncludeResource: font Helvetica
/Helvetica /WindowsLatin1Encoding 120 FMSR

1330 4898 mt 
( ) s
6143  473 mt 
( ) s
6 w
1 sg
0 1758 1712 0 0 -1758 4350 4559 4 MP
PP
-1712 0 0 1758 1712 0 0 -1758 4350 4559 5 MP stroke
4 w
DO
SO
6 w
0 sg
4350 2801 mt 6062 2801 L
4350 4559 mt 6062 4559 L
6062 4559 mt 6062 2801 L
4350 4559 mt 4350 2801 L
4350 4559 mt 6062 4559 L
4350 4559 mt 4350 2801 L
4350 2801 mt 6062 2801 L
4350 4559 mt 6062 4559 L
6062 4559 mt 6062 2801 L
4350 4559 mt 4350 2801 L
%%IncludeResource: font Helvetica
/Helvetica /WindowsLatin1Encoding 360 FMSR

4848 3164 mt 
(Bus) s
gs 4350 2801 1713 1759 rc
30 w
c8
383 0 4426 3036 2 MP stroke
gr

30 w
c8
gs 4345 2764 545 545 rc
0 -188 -188 0 0 188 188 0 4523 2942 5 MP
DP
gr

gs 4350 2801 1713 1759 rc
gr

0 sg
4848 3593 mt 
(Car) s
gs 4350 2801 1713 1759 rc
c9
383 0 4426 3465 2 MP stroke
gr

c9
gs 4345 3193 545 545 rc
0 276 -239 -138 239 -138 4537 3603 4 MP
DP
gr

gs 4350 2801 1713 1759 rc
gr

0 sg
4848 4022 mt 
(Walk) s
gs 4350 2801 1713 1759 rc
c10
383 0 4426 3894 2 MP stroke
gr

c10
gs 4345 3622 545 545 rc
120 159 -120 159 -120 -159 120 -159 4617 4053 5 MP
DP
gr

gs 4350 2801 1713 1759 rc
gr

0 sg
4848 4451 mt 
(T-drive) s
gs 4350 2801 1713 1759 rc
c11
383 0 4426 4323 2 MP stroke
gr

c11
gs 4345 4051 545 545 rc
 120  120 4617 4323 FO
gr

gs 4350 2801 1713 1759 rc
6 w
gr

6 w

end %%Color Dict

eplot
%%EndObject

epage
end

showpage

%%Trailer
%%EOF
