%!PS-Adobe-3.0 EPSF-3.0
%%Creator: MATLAB, The MathWorks, Inc. Version 8.3.0.532 (R2014a). Operating System: Microsoft Windows 10 Home Single Language.
%%Title: C:\Users\Sayan\SkyDrive\Research\projects\TrajectoryAnomaly\TrajectoryAnomaly\latex\vldb2016\eps\meanspeed.eps
%%CreationDate: 11/14/2015  09:21:25
%%DocumentNeededFonts: Helvetica
%%DocumentProcessColors: Cyan Magenta Yellow Black
%%LanguageLevel: 2
%%Pages: 1
%%BoundingBox:    16   135   594   656
%%EndComments

%%BeginProlog
% MathWorks dictionary
/MathWorks 160 dict begin
% definition operators
/bdef {bind def} bind def
/ldef {load def} bind def
/xdef {exch def} bdef
/xstore {exch store} bdef
% operator abbreviations
/c  /clip ldef
/cc /concat ldef
/cp /closepath ldef
/gr /grestore ldef
/gs /gsave ldef
/mt /moveto ldef
/np /newpath ldef
/cm /currentmatrix ldef
/sm /setmatrix ldef
/rm /rmoveto ldef
/rl /rlineto ldef
/s {show newpath} bdef
/sc {setcmykcolor} bdef
/sr /setrgbcolor ldef
/sg /setgray ldef
/w /setlinewidth ldef
/j /setlinejoin ldef
/cap /setlinecap ldef
/rc {rectclip} bdef
/rf {rectfill} bdef
% page state control
/pgsv () def
/bpage {/pgsv save def} bdef
/epage {pgsv restore} bdef
/bplot /gsave ldef
/eplot {stroke grestore} bdef
% orientation switch
/portraitMode 0 def /landscapeMode 1 def /rotateMode 2 def
% coordinate system mappings
/dpi2point 0 def
% font control
/FontSize 0 def
/FMS {/FontSize xstore findfont [FontSize 0 0 FontSize neg 0 0]
  makefont setfont} bdef
/ISOLatin1Encoding where {pop /WindowsLatin1Encoding 256 array bdef
ISOLatin1Encoding WindowsLatin1Encoding copy pop
/.notdef/.notdef/quotesinglbase/florin/quotedblbase/ellipsis/dagger
/daggerdbl/circumflex/perthousand/Scaron/guilsinglleft/OE/.notdef/.notdef
/.notdef/.notdef/quoteleft/quoteright/quotedblleft/quotedblright/bullet
/endash/emdash/tilde/trademark/scaron/guilsinglright/oe/.notdef/.notdef
/Ydieresis WindowsLatin1Encoding 128 32 getinterval astore pop}
{/WindowsLatin1Encoding StandardEncoding bdef} ifelse
/reencode {exch dup where {pop load} {pop StandardEncoding} ifelse
  exch dup 3 1 roll findfont dup length dict begin
  { 1 index /FID ne {def}{pop pop} ifelse } forall
  /Encoding exch def currentdict end definefont pop} bdef
/isroman {findfont /CharStrings get /Agrave known} bdef
/FMSR {3 1 roll 1 index dup isroman {reencode} {pop pop} ifelse
  exch FMS} bdef
/csm {1 dpi2point div -1 dpi2point div scale neg translate
 dup landscapeMode eq {pop -90 rotate}
  {rotateMode eq {90 rotate} if} ifelse} bdef
% line types: solid, dotted, dashed, dotdash
/SO { [] 0 setdash } bdef
/DO { [.5 dpi2point mul 4 dpi2point mul] 0 setdash } bdef
/DA { [6 dpi2point mul] 0 setdash } bdef
/DD { [.5 dpi2point mul 4 dpi2point mul 6 dpi2point mul 4
  dpi2point mul] 0 setdash } bdef
% macros for lines and objects
/L {lineto stroke} bdef
/MP {3 1 roll moveto 1 sub {rlineto} repeat} bdef
/AP {{rlineto} repeat} bdef
/PDlw -1 def
/W {/PDlw currentlinewidth def setlinewidth} def
/PP {closepath eofill} bdef
/DP {closepath stroke} bdef
/MR {4 -2 roll moveto dup  0 exch rlineto exch 0 rlineto
  neg 0 exch rlineto closepath} bdef
/FR {MR stroke} bdef
/PR {MR fill} bdef
/L1i {{currentfile picstr readhexstring pop} image} bdef
/tMatrix matrix def
/MakeOval {newpath tMatrix currentmatrix pop translate scale
0 0 1 0 360 arc tMatrix setmatrix} bdef
/FO {MakeOval stroke} bdef
/PO {MakeOval fill} bdef
/PD {currentlinewidth 2 div 0 360 arc fill
   PDlw -1 eq not {PDlw w /PDlw -1 def} if} def
/FA {newpath tMatrix currentmatrix pop translate scale
  0 0 1 5 -2 roll arc tMatrix setmatrix stroke} bdef
/PA {newpath tMatrix currentmatrix pop	translate 0 0 moveto scale
  0 0 1 5 -2 roll arc closepath tMatrix setmatrix fill} bdef
/FAn {newpath tMatrix currentmatrix pop translate scale
  0 0 1 5 -2 roll arcn tMatrix setmatrix stroke} bdef
/PAn {newpath tMatrix currentmatrix pop translate 0 0 moveto scale
  0 0 1 5 -2 roll arcn closepath tMatrix setmatrix fill} bdef
/vradius 0 def /hradius 0 def /lry 0 def
/lrx 0 def /uly 0 def /ulx 0 def /rad 0 def
/MRR {/vradius xdef /hradius xdef /lry xdef /lrx xdef /uly xdef
  /ulx xdef newpath tMatrix currentmatrix pop ulx hradius add uly
  vradius add translate hradius vradius scale 0 0 1 180 270 arc 
  tMatrix setmatrix lrx hradius sub uly vradius add translate
  hradius vradius scale 0 0 1 270 360 arc tMatrix setmatrix
  lrx hradius sub lry vradius sub translate hradius vradius scale
  0 0 1 0 90 arc tMatrix setmatrix ulx hradius add lry vradius sub
  translate hradius vradius scale 0 0 1 90 180 arc tMatrix setmatrix
  closepath} bdef
/FRR {MRR stroke } bdef
/PRR {MRR fill } bdef
/MlrRR {/lry xdef /lrx xdef /uly xdef /ulx xdef /rad lry uly sub 2 div def
  newpath tMatrix currentmatrix pop ulx rad add uly rad add translate
  rad rad scale 0 0 1 90 270 arc tMatrix setmatrix lrx rad sub lry rad
  sub translate rad rad scale 0 0 1 270 90 arc tMatrix setmatrix
  closepath} bdef
/FlrRR {MlrRR stroke } bdef
/PlrRR {MlrRR fill } bdef
/MtbRR {/lry xdef /lrx xdef /uly xdef /ulx xdef /rad lrx ulx sub 2 div def
  newpath tMatrix currentmatrix pop ulx rad add uly rad add translate
  rad rad scale 0 0 1 180 360 arc tMatrix setmatrix lrx rad sub lry rad
  sub translate rad rad scale 0 0 1 0 180 arc tMatrix setmatrix
  closepath} bdef
/FtbRR {MtbRR stroke } bdef
/PtbRR {MtbRR fill } bdef
/stri 6 array def /dtri 6 array def
/smat 6 array def /dmat 6 array def
/tmat1 6 array def /tmat2 6 array def /dif 3 array def
/asub {/ind2 exch def /ind1 exch def dup dup
  ind1 get exch ind2 get sub exch } bdef
/tri_to_matrix {
  2 0 asub 3 1 asub 4 0 asub 5 1 asub
  dup 0 get exch 1 get 7 -1 roll astore } bdef
/compute_transform {
  dmat dtri tri_to_matrix tmat1 invertmatrix 
  smat stri tri_to_matrix tmat2 concatmatrix } bdef
/ds {stri astore pop} bdef
/dt {dtri astore pop} bdef
/db {2 copy /cols xdef /rows xdef mul dup 3 mul string
  currentfile 
  3 index 0 eq {/ASCIIHexDecode filter}
  {/ASCII85Decode filter 3 index 2 eq {/RunLengthDecode filter} if }
  ifelse exch readstring pop
  dup 0 3 index getinterval /rbmap xdef
  dup 2 index dup getinterval /gbmap xdef
  1 index dup 2 mul exch getinterval /bbmap xdef pop pop}bdef
/it {gs np dtri aload pop moveto lineto lineto cp c
  cols rows 8 compute_transform 
  rbmap gbmap bbmap true 3 colorimage gr}bdef
/il {newpath moveto lineto stroke}bdef
currentdict end def
%%EndProlog

%%BeginSetup
MathWorks begin

0 cap

end
%%EndSetup

%%Page: 1 1
%%BeginPageSetup
%%PageBoundingBox:    16   135   594   656
MathWorks begin
bpage
%%EndPageSetup

%%BeginObject: obj1
bplot

/dpi2point 12 def
portraitMode 0192 7872 csm

    0     0  6947  6246 rc
85 dict begin %Colortable dictionary
/c0 { 0.000000 0.000000 0.000000 sr} bdef
/c1 { 1.000000 1.000000 1.000000 sr} bdef
/c2 { 0.900000 0.000000 0.000000 sr} bdef
/c3 { 0.000000 0.820000 0.000000 sr} bdef
/c4 { 0.000000 0.000000 0.800000 sr} bdef
/c5 { 0.910000 0.820000 0.320000 sr} bdef
/c6 { 1.000000 0.260000 0.820000 sr} bdef
/c7 { 0.000000 0.820000 0.820000 sr} bdef
c0
1 j
1 sg
   0    0 6948 6247 rf
6 w
0 4947 5307 0 0 -4947 980 5415 4 MP
PP
-5307 0 0 4947 5307 0 0 -4947 980 5415 5 MP stroke
4 w
DO
SO
6 w
0 sg
 980  468 mt 6287  468 L
 980 5415 mt 6287 5415 L
6287 5415 mt 6287  468 L
 980 5415 mt  980  468 L
 980 5415 mt 6287 5415 L
 980 5415 mt  980  468 L
 980 5415 mt  980 5361 L
 980  468 mt  980  521 L
%%IncludeResource: font Helvetica
/Helvetica /WindowsLatin1Encoding 300 FMSR

 897 5728 mt 
(0) s
2041 5415 mt 2041 5361 L
2041  468 mt 2041  521 L
1958 5728 mt 
(5) s
3102 5415 mt 3102 5361 L
3102  468 mt 3102  521 L
2936 5728 mt 
(10) s
4164 5415 mt 4164 5361 L
4164  468 mt 4164  521 L
3998 5728 mt 
(15) s
5225 5415 mt 5225 5361 L
5225  468 mt 5225  521 L
5059 5728 mt 
(20) s
6287 5415 mt 6287 5361 L
6287  468 mt 6287  521 L
6121 5728 mt 
(25) s
 980 5415 mt 1033 5415 L
6287 5415 mt 6233 5415 L
 779 5526 mt 
(0) s
 980 4425 mt 1033 4425 L
6287 4425 mt 6233 4425 L
 612 4536 mt 
(10) s
 980 3436 mt 1033 3436 L
6287 3436 mt 6233 3436 L
 612 3547 mt 
(20) s
 980 2446 mt 1033 2446 L
6287 2446 mt 6233 2446 L
 612 2557 mt 
(30) s
 980 1457 mt 1033 1457 L
6287 1457 mt 6233 1457 L
 612 1568 mt 
(40) s
 980  468 mt 1033  468 L
6287  468 mt 6233  468 L
 612  579 mt 
(50) s
 980  468 mt 6287  468 L
 980 5415 mt 6287 5415 L
6287 5415 mt 6287  468 L
 980 5415 mt  980  468 L
gs 980 468 5308 4948 rc
30 w
/c8 { 0.000000 0.000000 1.000000 sr} bdef
c8
212 -99 213 -198 212 -99 212 99 212 -297 213 -198 212 297 212 198 
213 99 212 0 212 -198 212 0 213 -297 212 -395 212 99 213 395 
212 198 212 0 212 99 213 0 212 198 212 -198 212 396 980 2743 24 MP stroke
gr

30 w
c8
0 j
0 -188 -188 0 0 188 188 0 886 2649 5 MP
DP
0 -188 -188 0 0 188 188 0 1098 3045 5 MP
DP
0 -188 -188 0 0 188 188 0 1310 2847 5 MP
DP
0 -188 -188 0 0 188 188 0 1522 3045 5 MP
DP
0 -188 -188 0 0 188 188 0 1735 3045 5 MP
DP
0 -188 -188 0 0 188 188 0 1947 3144 5 MP
DP
0 -188 -188 0 0 188 188 0 2159 3144 5 MP
DP
0 -188 -188 0 0 188 188 0 2371 3342 5 MP
DP
0 -188 -188 0 0 188 188 0 2584 3737 5 MP
DP
0 -188 -188 0 0 188 188 0 2796 3836 5 MP
DP
0 -188 -188 0 0 188 188 0 3008 3441 5 MP
DP
0 -188 -188 0 0 188 188 0 3221 3144 5 MP
DP
0 -188 -188 0 0 188 188 0 3433 3144 5 MP
DP
0 -188 -188 0 0 188 188 0 3645 2946 5 MP
DP
0 -188 -188 0 0 188 188 0 3857 2946 5 MP
DP
0 -188 -188 0 0 188 188 0 4070 3045 5 MP
DP
0 -188 -188 0 0 188 188 0 4282 3243 5 MP
DP
0 -188 -188 0 0 188 188 0 4494 3540 5 MP
DP
0 -188 -188 0 0 188 188 0 4707 3342 5 MP
DP
0 -188 -188 0 0 188 188 0 4919 3045 5 MP
DP
0 -188 -188 0 0 188 188 0 5131 3144 5 MP
DP
0 -188 -188 0 0 188 188 0 5343 3045 5 MP
DP
0 -188 -188 0 0 188 188 0 5556 2847 5 MP
DP
0 -188 -188 0 0 188 188 0 5768 2748 5 MP
DP
gs 980 468 5308 4948 rc
gr

0 sg
%%IncludeResource: font Helvetica
/Helvetica /WindowsLatin1Encoding 480 FMSR

 449 4449 mt  -90 rotate
(Speed \(kmph\)) s
90 rotate
1985 6136 mt 
(Time of the day) s
%%IncludeResource: font Helvetica
/Helvetica /WindowsLatin1Encoding 120 FMSR

 963 5458 mt 
( ) s
6271  510 mt 
( ) s
6 w
1 sg
0 396 1511 0 0 -396 4717 924 4 MP
PP
-1511 0 0 396 1511 0 0 -396 4717 924 5 MP stroke
4 w
DO
SO
6 w
0 sg
4717  528 mt 6228  528 L
4717  924 mt 6228  924 L
6228  924 mt 6228  528 L
4717  924 mt 4717  528 L
4717  924 mt 6228  924 L
4717  924 mt 4717  528 L
4717  528 mt 6228  528 L
4717  924 mt 6228  924 L
6228  924 mt 6228  528 L
4717  924 mt 4717  528 L
%%IncludeResource: font Helvetica
/Helvetica /WindowsLatin1Encoding 300 FMSR

5205  833 mt 
(T-drive) s
gs 4717 528 1512 397 rc
30 w
c8
375 0 4792 726 2 MP stroke
gr

30 w
c8
gs 4707 454 545 545 rc
0 -188 -188 0 0 188 188 0 4885 632 5 MP
DP
gr

gs 4717 528 1512 397 rc
6 w
gr

6 w

end %%Color Dict

eplot
%%EndObject

epage
end

showpage

%%Trailer
%%EOF
