\relax 
\providecommand\hyper@newdestlabel[2]{}
\providecommand\HyperFirstAtBeginDocument{\AtBeginDocument}
\HyperFirstAtBeginDocument{\ifx\hyper@anchor\@undefined
\global\let\oldcontentsline\contentsline
\gdef\contentsline#1#2#3#4{\oldcontentsline{#1}{#2}{#3}}
\global\let\oldnewlabel\newlabel
\gdef\newlabel#1#2{\newlabelxx{#1}#2}
\gdef\newlabelxx#1#2#3#4#5#6{\oldnewlabel{#1}{{#2}{#3}}}
\AtEndDocument{\ifx\hyper@anchor\@undefined
\let\contentsline\oldcontentsline
\let\newlabel\oldnewlabel
\fi}
\fi}
\global\let\hyper@last\relax 
\gdef\HyperFirstAtBeginDocument#1{#1}
\providecommand\HyField@AuxAddToFields[1]{}
\providecommand\HyField@AuxAddToCoFields[2]{}
\citation{myinfocom}
\citation{emergency}
\citation{cab1}
\citation{busbunching}
\@writefile{toc}{\contentsline {section}{\numberline {I}Introduction}{1}{section.1}}
\newlabel{sec:introduction}{{I}{1}{Introduction}{section.1}{}}
\@writefile{lof}{\contentsline {figure}{\numberline {1}{\ignorespaces Illustration of the problem of mining maximal temporally anomalous sub-trajectories. }}{1}{figure.1}}
\newlabel{fig:illustration1}{{1}{1}{Illustration of the problem of mining maximal temporally anomalous sub-trajectories}{figure.1}{}}
\citation{spatial1,emergency,spatial2}
\citation{temporal1}
\citation{map1,map2}
\@writefile{lof}{\contentsline {figure}{\numberline {2}{\ignorespaces Pipeline of \textsc  {Mantra}. }}{2}{figure.2}}
\newlabel{fig:illustration}{{2}{2}{Pipeline of \textsc {Mantra}}{figure.2}{}}
\@writefile{toc}{\contentsline {section}{\numberline {II}Problem Formulation}{2}{section.2}}
\newlabel{sec:formulation}{{II}{2}{Problem Formulation}{section.2}{}}
\newlabel{def:roadnetwork}{{1}{2}{Problem Formulation}{defn.1}{}}
\citation{map1,map2,map3}
\citation{123}
\citation{123}
\citation{123}
\citation{sparsetiming}
\citation{myicdm}
\citation{emergency,sparsetiming}
\citation{cab1}
\newlabel{eq:variance}{{1}{3}{Problem Formulation}{equation.2.1}{}}
\newlabel{eq:anomaly}{{4}{3}{Problem Formulation}{equation.2.4}{}}
\@writefile{toc}{\contentsline {section}{\numberline {III}The na\"{i}ve approach}{3}{section.3}}
\newlabel{sec:analysis}{{III}{3}{The na\"{i}ve approach}{section.3}{}}
\citation{hustim2013vehicle}
\@writefile{lof}{\contentsline {figure}{\numberline {3}{\ignorespaces A road network and a database of network-constrained trajectories. For simplicity, we ignore the timestamps. }}{4}{figure.3}}
\newlabel{fig:network}{{3}{4}{A road network and a database of network-constrained trajectories. For simplicity, we ignore the timestamps}{figure.3}{}}
\@writefile{toc}{\contentsline {section}{\numberline {IV}MANTRA}{4}{section.4}}
\newlabel{sec:mantra}{{IV}{4}{MANTRA}{section.4}{}}
\@writefile{toc}{\contentsline {subsection}{\numberline {\unhbox \voidb@x \hbox {IV-A}}Managing data sparsity}{4}{subsection.4.1}}
\newlabel{sec:datasparsity}{{\unhbox \voidb@x \hbox {IV-A}}{4}{Managing data sparsity}{subsection.4.1}{}}
\newlabel{fig:sparsity}{{4(a)}{4}{Subfigure 4(a)}{subfigure.4.1}{}}
\newlabel{sub@fig:sparsity}{{(a)}{4}{Subfigure 4(a)\relax }{subfigure.4.1}{}}
\newlabel{fig:covariance}{{4(b)}{4}{Subfigure 4(b)}{subfigure.4.2}{}}
\newlabel{sub@fig:covariance}{{(b)}{4}{Subfigure 4(b)\relax }{subfigure.4.2}{}}
\@writefile{lof}{\contentsline {figure}{\numberline {4}{\ignorespaces (a) Illustration of data sparsity with sub-trajectory size. (b) Correlation among edges against the distance between them.}}{4}{figure.4}}
\@writefile{lof}{\contentsline {subfigure}{\numberline{(a)}{\ignorespaces {}}}{4}{figure.4}}
\@writefile{lof}{\contentsline {subfigure}{\numberline{(b)}{\ignorespaces {}}}{4}{figure.4}}
\@writefile{toc}{\contentsline {subsection}{\numberline {\unhbox \voidb@x \hbox {IV-B}}Fine-tuning the z-score based anomaly model}{4}{subsection.4.2}}
\newlabel{thm:excuse}{{1}{4}{Fine-tuning the z-score based anomaly model}{claim.1}{}}
\citation{msa}
\@writefile{lof}{\contentsline {figure}{\numberline {5}{\ignorespaces The MASs in the shown example. Red edges denote the anomalous edges ($|{I}(e)(\mu _e-S.t_e)^2|>1$).}}{5}{figure.5}}
\newlabel{fig:sw}{{5}{5}{The MASs in the shown example. Red edges denote the anomalous edges ($|{I}(e)(\mu _e-S.t_e)^2|>1$)}{figure.5}{}}
\newlabel{eq:dist}{{6}{5}{Fine-tuning the z-score based anomaly model}{equation.4.6}{}}
\newlabel{eq:ouranomaly}{{8}{5}{Fine-tuning the z-score based anomaly model}{equation.4.8}{}}
\newlabel{thm:ouranomaly}{{2}{5}{Fine-tuning the z-score based anomaly model}{claim.2}{}}
\@writefile{toc}{\contentsline {subsection}{\numberline {\unhbox \voidb@x \hbox {IV-C}}Mining maximally anomalous sub-trajectories}{5}{subsection.4.3}}
\newlabel{sec:mining}{{\unhbox \voidb@x \hbox {IV-C}}{5}{Mining maximally anomalous sub-trajectories}{subsection.4.3}{}}
\newlabel{sec:sw}{{\unhbox \voidb@x \hbox {IV-C}1}{5}{Bi-directional sliding window}{subsubsection.4.3.1}{}}
\@writefile{toc}{\contentsline {subsubsection}{\numberline {\unhbox \voidb@x \hbox {IV-C}1}Bi-directional sliding window}{5}{subsubsection.4.3.1}}
\newlabel{thm:sw}{{3}{5}{Bi-directional sliding window}{claim.3}{}}
\@writefile{loa}{\contentsline {algorithm}{\numberline {1}{\ignorespaces BSW($T$)}}{6}{algorithm.1}}
\newlabel{alg:sw}{{1}{6}{Bi-directional sliding window}{algorithm.1}{}}
\newlabel{sec:island}{{\unhbox \voidb@x \hbox {IV-C}2}{6}{Mining islands}{subsubsection.4.3.2}{}}
\@writefile{toc}{\contentsline {subsubsection}{\numberline {\unhbox \voidb@x \hbox {IV-C}2}Mining islands}{6}{subsubsection.4.3.2}}
\@writefile{lof}{\contentsline {figure}{\numberline {6}{\ignorespaces A trajectory where the bi-directional sliding window algorithm is not efficient. Red edges denote anomalous ones.}}{6}{figure.6}}
\newlabel{fig:swweakness}{{6}{6}{A trajectory where the bi-directional sliding window algorithm is not efficient. Red edges denote anomalous ones}{figure.6}{}}
\@writefile{lof}{\contentsline {figure}{\numberline {7}{\ignorespaces The islands contained in the trajectory in Fig.\nobreakspace  {}\ref  {fig:swweakness}}}{6}{figure.7}}
\newlabel{fig:islands}{{7}{6}{The islands contained in the trajectory in Fig.~\ref {fig:swweakness}}{figure.7}{}}
\newlabel{thm:overlapping_synergy}{{4}{7}{Mining islands}{claim.4}{}}
\newlabel{thm:nonanomalous_synergy}{{5}{7}{Mining islands}{claim.5}{}}
\newlabel{thm:twoedge}{{6}{7}{Mining islands}{claim.6}{}}
\newlabel{thm:one_edge_synergy}{{7}{7}{Mining islands}{claim.7}{}}
\newlabel{eq:oneedge}{{12}{7}{Mining islands}{equation.4.12}{}}
\citation{cab1,cab2}
\citation{geolife}
\citation{map1,map2,map3}
\citation{osm}
\@writefile{loa}{\contentsline {algorithm}{\numberline {2}{\ignorespaces MANTRA($T$)}}{8}{algorithm.2}}
\newlabel{alg:mfa}{{2}{8}{Mining islands}{algorithm.2}{}}
\@writefile{loa}{\contentsline {algorithm}{\numberline {3}{\ignorespaces addSeed($S,ST$)}}{8}{algorithm.3}}
\newlabel{alg:addseed}{{3}{8}{Mining islands}{algorithm.3}{}}
\@writefile{lof}{\contentsline {figure}{\numberline {8}{\ignorespaces Illustration of seeds, left boundary, right boundary, and synergy. The red glowing edges denote anomalous edges. Yellow glowing dashed edges denote those non-anomalous edges that are in the left or right boundary of an anomalous edge. Refer to Table.\nobreakspace  {}\ref  {tab:synergy} for the corresponding stored items in the seed set.}}{8}{figure.8}}
\newlabel{fig:synergy}{{8}{8}{Illustration of seeds, left boundary, right boundary, and synergy. The red glowing edges denote anomalous edges. Yellow glowing dashed edges denote those non-anomalous edges that are in the left or right boundary of an anomalous edge. Refer to Table.~\ref {tab:synergy} for the corresponding stored items in the seed set}{figure.8}{}}
\newlabel{thm:no_missing_mas}{{8}{8}{Mining islands}{claim.8}{}}
\@writefile{toc}{\contentsline {section}{\numberline {V}Experiments}{8}{section.5}}
\newlabel{sec:experiments}{{V}{8}{Experiments}{section.5}{}}
\@writefile{toc}{\contentsline {subsection}{\numberline {\unhbox \voidb@x \hbox {V-A}}Datasets}{8}{subsection.5.1}}
\newlabel{sec:datasets}{{\unhbox \voidb@x \hbox {V-A}}{8}{Datasets}{subsection.5.1}{}}
\@writefile{lot}{\contentsline {table}{\numberline {I}{\ignorespaces Seed set and their boundaries for the example in Fig.\ref  {fig:synergy}}}{9}{table.1}}
\newlabel{tab:synergy}{{I}{9}{Seed set and their boundaries for the example in Fig.\ref {fig:synergy}}{table.1}{}}
\@writefile{toc}{\contentsline {subsection}{\numberline {\unhbox \voidb@x \hbox {V-B}}Experimental Setup}{9}{subsection.5.2}}
\newlabel{sec:setup}{{\unhbox \voidb@x \hbox {V-B}}{9}{Experimental Setup}{subsection.5.2}{}}
\@writefile{toc}{\contentsline {subsection}{\numberline {\unhbox \voidb@x \hbox {V-C}}Scalability}{9}{subsection.5.3}}
\newlabel{sec:scalability}{{\unhbox \voidb@x \hbox {V-C}}{9}{Scalability}{subsection.5.3}{}}
\@writefile{lof}{\contentsline {figure}{\numberline {9}{\ignorespaces Distribution of trajectory sizes in the T-Drive and GeoLife datasets. }}{9}{figure.9}}
\newlabel{fig:trajdist}{{9}{9}{Distribution of trajectory sizes in the T-Drive and GeoLife datasets}{figure.9}{}}
\newlabel{fig:trajsizevstime}{{10(a)}{10}{Subfigure 10(a)}{subfigure.10.1}{}}
\newlabel{sub@fig:trajsizevstime}{{(a)}{10}{Subfigure 10(a)\relax }{subfigure.10.1}{}}
\newlabel{fig:trajsizevsedge}{{10(b)}{10}{Subfigure 10(b)}{subfigure.10.2}{}}
\newlabel{sub@fig:trajsizevsedge}{{(b)}{10}{Subfigure 10(b)\relax }{subfigure.10.2}{}}
\newlabel{fig:anomalysizevstime}{{10(c)}{10}{Subfigure 10(c)}{subfigure.10.3}{}}
\newlabel{sub@fig:anomalysizevstime}{{(c)}{10}{Subfigure 10(c)\relax }{subfigure.10.3}{}}
\newlabel{fig:anomalysizevsedges}{{10(d)}{10}{Subfigure 10(d)}{subfigure.10.4}{}}
\newlabel{sub@fig:anomalysizevsedges}{{(d)}{10}{Subfigure 10(d)\relax }{subfigure.10.4}{}}
\@writefile{lof}{\contentsline {figure}{\numberline {10}{\ignorespaces The growth rate of (b) running time and (b) number of edges processed against the trajectory size. The growth rate of (d) running time and (e) number of edges processed against the number of anomalous edges.}}{10}{figure.10}}
\@writefile{lof}{\contentsline {subfigure}{\numberline{(a)}{\ignorespaces {}}}{10}{figure.10}}
\@writefile{lof}{\contentsline {subfigure}{\numberline{(b)}{\ignorespaces {}}}{10}{figure.10}}
\@writefile{lof}{\contentsline {subfigure}{\numberline{(c)}{\ignorespaces {}}}{10}{figure.10}}
\@writefile{lof}{\contentsline {subfigure}{\numberline{(d)}{\ignorespaces {}}}{10}{figure.10}}
\newlabel{ex:synthetic}{{5}{10}{Scalability}{example.5}{}}
\@writefile{lof}{\contentsline {figure}{\numberline {11}{\ignorespaces Illustration of the synthetic data generator at $AP=40\%$ on a trajectory of size 10. }}{10}{figure.11}}
\newlabel{fig:synthetic}{{11}{10}{Illustration of the synthetic data generator at $AP=40\%$ on a trajectory of size 10}{figure.11}{}}
\newlabel{fig:ap}{{12(a)}{10}{Subfigure 12(a)}{subfigure.12.1}{}}
\newlabel{sub@fig:ap}{{(a)}{10}{Subfigure 12(a)\relax }{subfigure.12.1}{}}
\newlabel{fig:ms}{{12(b)}{10}{Subfigure 12(b)}{subfigure.12.2}{}}
\newlabel{sub@fig:ms}{{(b)}{10}{Subfigure 12(b)\relax }{subfigure.12.2}{}}
\@writefile{lof}{\contentsline {figure}{\numberline {12}{\ignorespaces Impact of the distribution of seeds on the performance of \textsc  {Mantra} and Sliding Window.}}{10}{figure.12}}
\@writefile{lof}{\contentsline {subfigure}{\numberline{(a)}{\ignorespaces {}}}{10}{figure.12}}
\@writefile{lof}{\contentsline {subfigure}{\numberline{(b)}{\ignorespaces {}}}{10}{figure.12}}
\citation{fscore}
\@writefile{toc}{\contentsline {subsection}{\numberline {\unhbox \voidb@x \hbox {V-D}}Efficacy and applications}{11}{subsection.5.4}}
\newlabel{sec:quality}{{\unhbox \voidb@x \hbox {V-D}}{11}{Efficacy and applications}{subsection.5.4}{}}
\newlabel{eq:anomalyscore}{{14}{11}{Efficacy and applications}{equation.5.14}{}}
\@writefile{lof}{\contentsline {figure}{\numberline {13}{\ignorespaces The growth rate of running time against the anomaly threshold.}}{11}{figure.13}}
\newlabel{fig:anomalyvstime}{{13}{11}{The growth rate of running time against the anomaly threshold}{figure.13}{}}
\@writefile{lot}{\contentsline {table}{\numberline {II}{\ignorespaces F-scores in two-class classification.}}{11}{table.2}}
\newlabel{tab:f-score}{{II}{11}{F-scores in two-class classification}{table.2}{}}
\newlabel{fig:walkcar}{{14(a)}{11}{Subfigure 14(a)}{subfigure.14.1}{}}
\newlabel{sub@fig:walkcar}{{(a)}{11}{Subfigure 14(a)\relax }{subfigure.14.1}{}}
\newlabel{fig:buscar}{{14(b)}{11}{Subfigure 14(b)}{subfigure.14.2}{}}
\newlabel{sub@fig:buscar}{{(b)}{11}{Subfigure 14(b)\relax }{subfigure.14.2}{}}
\@writefile{lof}{\contentsline {figure}{\numberline {14}{\ignorespaces Distribution of anomaly scores in two-class classification.}}{11}{figure.14}}
\@writefile{lof}{\contentsline {subfigure}{\numberline{(a)}{\ignorespaces {Walk and Car}}}{11}{figure.14}}
\@writefile{lof}{\contentsline {subfigure}{\numberline{(b)}{\ignorespaces {Bus and Car}}}{11}{figure.14}}
\citation{PANO}
\citation{Hu06asystem}
\citation{spatial1}
\citation{breunig2000lof}
\citation{knorr2000distance}
\citation{ge2010top}
\citation{spatial2}
\citation{emergency}
\citation{chen2012real}
\citation{li2007roam}
\citation{aghabozorgi2014stock}
\citation{fong2012using}
\citation{yang2011dna}
\citation{rakthanmanon2011time}
\citation{temporal1}
\citation{piciarelli2008trajectory}
\citation{busbunching}
\@writefile{lot}{\contentsline {table}{\numberline {III}{\ignorespaces F-scores in 3-class classification.}}{12}{table.3}}
\newlabel{tab:fscores3}{{III}{12}{F-scores in 3-class classification}{table.3}{}}
\@writefile{lot}{\contentsline {table}{\numberline {IV}{\ignorespaces F-scores in trajectory segmentation by \textsc  {Mantra} and Nearest neighbor (NN) classification based on edge speed.}}{12}{table.4}}
\newlabel{tab:segmentation}{{IV}{12}{F-scores in trajectory segmentation by \textsc {Mantra} and Nearest neighbor (NN) classification based on edge speed}{table.4}{}}
\@writefile{toc}{\contentsline {section}{\numberline {VI}Related Work}{12}{section.6}}
\newlabel{sec:relatedwork}{{VI}{12}{Related Work}{section.6}{}}
\citation{traclass}
\bibstyle{IEEEtran}
\bibdata{IEEEabrv,mantra}
\bibcite{myinfocom}{1}
\bibcite{emergency}{2}
\bibcite{cab1}{3}
\bibcite{busbunching}{4}
\bibcite{spatial1}{5}
\bibcite{spatial2}{6}
\bibcite{temporal1}{7}
\bibcite{map1}{8}
\bibcite{map2}{9}
\bibcite{map3}{10}
\bibcite{123}{11}
\bibcite{sparsetiming}{12}
\bibcite{myicdm}{13}
\bibcite{hustim2013vehicle}{14}
\bibcite{msa}{15}
\bibcite{cab2}{16}
\bibcite{geolife}{17}
\bibcite{osm}{18}
\bibcite{fscore}{19}
\bibcite{PANO}{20}
\bibcite{Hu06asystem}{21}
\bibcite{breunig2000lof}{22}
\bibcite{knorr2000distance}{23}
\bibcite{ge2010top}{24}
\bibcite{chen2012real}{25}
\bibcite{li2007roam}{26}
\bibcite{aghabozorgi2014stock}{27}
\bibcite{fong2012using}{28}
\bibcite{yang2011dna}{29}
\bibcite{rakthanmanon2011time}{30}
\bibcite{piciarelli2008trajectory}{31}
\bibcite{traclass}{32}
\@writefile{toc}{\contentsline {section}{\numberline {VII}Conclusion}{13}{section.7}}
\newlabel{sec:conclusion}{{VII}{13}{Conclusion}{section.7}{}}
\@writefile{toc}{\contentsline {section}{References}{13}{section*.1}}
